{
  "urn" : "local:stefano.balbi:im.euskadi.data:bn.po4.load.high.simple.cutchange",
  "version" : "0.0.1",
  "adapterType" : "weka",
  "localPath" : "im.data.euskadi/resources/bn.po4.load.high.simple.cutchange",
  "geometry" : "T1(1){ttype=INITIALIZATION}S2(386,195){bbox=[-3.448020335811194 -3.3526711955309865 43.32647713804974 43.36147332705292],proj=EPSG:4326,shape=00000000030000000100000005C00B958BAF9204214045A9CA00BB685CC00AD24546985FDD4045A9CA00BB685CC00AD24546985FDD4045AE44C20B08C8C00B958BAF9204214045AE44C20B08C8C00B958BAF9204214045A9CA00BB685C}",
  "projectName" : "im.data.euskadi",
  "localName" : "bn.po4.load.high.simple.cutchange",
  "type" : "NUMBER",
  "resourceTimestamp" : 1602509852708,
  "metadata" : { },
  "parameters" : {
    "predicted.range" : "[0.0,15000.0]",
    "predictor.high_stream_flow_event_count.discretizer.options" : "-R 4  -B 3 -Y",
    "submitNodata" : "true",
    "classifier.file" : "classifier4945193175459748061.bin",
    "predictor.high_stream_flow_event_count.range" : "[0.0,10.5]",
    "predictor.riparian_broadleaf_forest_proportion_area_of_watershed.discretizer.cutpoints" : "[0.3333333333333333, 0.6666666666666666]",
    "instances.file.raw" : "rawinstances2367772740373957764.arff",
    "predicted.index" : "1",
    "predictor.high_stream_flow_event_count.index" : "4",
    "predictor.area_of_watershed.discretizer" : "weka.filters.unsupervised.attribute.Discretize",
    "predictor.riparian_broadleaf_forest_proportion_area_of_watershed.discretizer" : "weka.filters.unsupervised.attribute.Discretize",
    "classifier" : "weka.classifiers.bayes.BayesNet",
    "predictor.area_of_watershed.range" : "[0.0,750.0]",
    "predictor.riparian_broadleaf_forest_proportion_area_of_watershed.discretizer.options" : "-R 3  -B 3 -Y",
    "predicted.discretizer.options" : "-R 1  -B 3 -Y",
    "model" : "ml.waterq.high.ratio-of-phosphate-mass-during-winter-to-area-of-watershed-within-reach-learner",
    "classifier.options" : " -Q weka.classifiers.bayes.net.search.local.K2 -- -P 1 -E weka.classifiers.bayes.net.estimate.SimpleEstimator -- -A 1.0",
    "predicted.discretizer" : "weka.filters.unsupervised.attribute.Discretize",
    "predicted.name" : "phosphate_mass_during_winter_to_area_of_watershed_ratio_of_reach",
    "predictor.area_of_watershed.discretizer.cutpoints" : "[250.0, 500.0]",
    "instances.file" : "instances7131950605844036083.arff",
    "predictor.riparian_broadleaf_forest_proportion_area_of_watershed.index" : "3",
    "predictor.high_stream_flow_event_count.discretizer.file" : "d_high_stream_flow_event_count7438693838686137384.bin",
    "predicted.discretizer.file" : "d_phosphate_mass_during_winter_to_area_of_watershed_ratio_of_reach871065075056908337.bin",
    "predictor.area_of_watershed.discretizer.file" : "d_area_of_watershed5782065637623394032.bin",
    "classifier.probabilistic" : "true",
    "predictor.riparian_broadleaf_forest_proportion_area_of_watershed.range" : "[0.0,1.0]",
    "predictor.riparian_broadleaf_forest_proportion_area_of_watershed.discretizer.file" : "d_riparian_broadleaf_forest_proportion_area_of_watershed8109826151813180400.bin",
    "predictor.high_stream_flow_event_count.discretizer" : "weka.filters.unsupervised.attribute.Discretize",
    "predictor.high_stream_flow_event_count.discretizer.cutpoints" : "[3.5, 7.0]",
    "wekaVersion" : "3.8.3",
    "predictor.area_of_watershed.index" : "2",
    "predictor.area_of_watershed.discretizer.options" : "-R 2  -B 3 -Y",
    "predicted.discretizer.cutpoints" : "[5000.0, 10000.0]"
  },
  "localPaths" : [ "im.data.euskadi\\resources/bn.po4.load.high.simple.cutchange/d_phosphate_mass_during_winter_to_area_of_watershed_ratio_of_reach871065075056908337.bin", "im.data.euskadi\\resources/bn.po4.load.high.simple.cutchange/d_area_of_watershed5782065637623394032.bin", "im.data.euskadi\\resources/bn.po4.load.high.simple.cutchange/d_riparian_broadleaf_forest_proportion_area_of_watershed8109826151813180400.bin", "im.data.euskadi\\resources/bn.po4.load.high.simple.cutchange/d_high_stream_flow_event_count7438693838686137384.bin", "im.data.euskadi\\resources/bn.po4.load.high.simple.cutchange/instances7131950605844036083.arff", "im.data.euskadi\\resources/bn.po4.load.high.simple.cutchange/rawinstances2367772740373957764.arff", "im.data.euskadi\\resources/bn.po4.load.high.simple.cutchange/classifier4945193175459748061.bin" ],
  "history" : [ ],
  "notifications" : [ ],
  "attributes" : [ ],
  "spatialExtent" : null,
  "dependencies" : [ {
    "name" : "area_of_watershed",
    "type" : "NUMBER",
    "key" : true,
    "optional" : true,
    "exampleValue" : null
  }, {
    "name" : "riparian_broadleaf_forest_proportion_area_of_watershed",
    "type" : "NUMBER",
    "key" : true,
    "optional" : true,
    "exampleValue" : null
  }, {
    "name" : "high_stream_flow_event_count",
    "type" : "NUMBER",
    "key" : true,
    "optional" : true,
    "exampleValue" : null
  } ],
  "outputs" : null,
  "exportFormats" : {
    "bif" : "BIF bayesian network (.bif)",
    "xdsl" : "GENIE bayesian network (.xdsl)",
    "arff" : "Training dataset (ARFF)",
    "arff#raw" : "Raw training dataset (ARFF)",
    "model" : "WEKA Classifier (.model)",
    "model#predicted" : "WEKA discretizer for the predicted variable (.model)",
    "model#area_of_watershed" : "WEKA Discretizer for Area of watershed (.model)",
    "model#riparian_broadleaf_forest_proportion_area_of_watershed" : "WEKA Discretizer for Riparian broadleaf forest proportion area of watershed (.model)",
    "model#high_stream_flow_event_count" : "WEKA Discretizer for High stream flow event count (.model)"
  }
}