{
  "urn" : "local:Benat_Egidazu:im.data.euskadi:urdaibai_pilot_case_study",
  "version" : "0.0.1",
  "adapterType" : "vector",
  "localPath" : "im.data.euskadi/resources/urdaibai_pilot_case_study.v0.0.1",
  "geometry" : "s1(1){bbox=[-2.772014797078102 -2.5692967131181725 43.22374655079342 43.494486425000034],proj=EPSG:4326}",
  "projectName" : "im.data.euskadi",
  "localName" : "urdaibai_pilot_case_study.shp",
  "type" : "OBJECT",
  "resourceTimestamp" : 1635421275511,
  "metadata" : {
    "im:keywords" : "urdaibai_pilot_case_study,features",
    "dc:comment" : "Representation of the Urdaibai Biosphere Reserve boundaries. This delimitation has been obtained adding to the Urdaibai Biosphere boundary the marine area (perpendicular to the coastline) up to where bathymetry data exists approximately.",
    "im:notes" : "",
    "dc:title" : "Urdaibai boundary",
    "dc:url" : "https://www.geo.euskadi.eus/cartografia/DatosDescarga/Medio_Ambiente/Espacios_Naturales/Reservas_De_La_Biosfera/",
    "dc:creator" : "",
    "im:thematic-area" : "Geography",
    "dc:originator" : "Geoeuskadi\r\nAZTI Tecnalia",
    "im:geographic-area" : "Global",
    "dc:source" : ""
  },
  "parameters" : { },
  "localPaths" : [ "im.data.euskadi/resources/urdaibai_pilot_case_study.v0.0.1/urdaibai_pilot_case_study.sbx", "im.data.euskadi/resources/urdaibai_pilot_case_study.v0.0.1/urdaibai_pilot_case_study.prj", "im.data.euskadi/resources/urdaibai_pilot_case_study.v0.0.1/urdaibai_pilot_case_study.dbf", "im.data.euskadi/resources/urdaibai_pilot_case_study.v0.0.1/urdaibai_pilot_case_study.shp", "im.data.euskadi/resources/urdaibai_pilot_case_study.v0.0.1/urdaibai_pilot_case_study.shp.xml", "im.data.euskadi/resources/urdaibai_pilot_case_study.v0.0.1/urdaibai_pilot_case_study.shx" ],
  "history" : [ ],
  "notifications" : [ ],
  "attributes" : {
    "name" : "Id",
    "type" : "NUMBER",
    "key" : false,
    "optional" : true,
    "exampleValue" : null,
    "index" : 0
  },
  "spatialExtent" : {
    "east" : -2.5692967131181725,
    "west" : -2.772014797078102,
    "north" : 43.494486425000034,
    "south" : 43.22374655079342,
    "gridResolution" : null,
    "gridUnit" : null
  },
  "dependencies" : null,
  "outputs" : null,
  "categorizables" : [ ],
  "codelists" : [ ],
  "availability" : null,
  "exportFormats" : {
    "shp" : "ESRI shapefile"
  }
}