{
  "urn" : "local:alessio.bulckaen:im.data.euskadi:geoeuskadi.inventario_forestal_landcover_euskadi_epsg25830_10m_2022",
  "version" : "0.0.1",
  "adapterType" : "wcs",
  "localPath" : "im.data.euskadi/resources/geoeuskadi.inventario_forestal_landcover_euskadi_epsg25830_10m_2022",
  "geometry" : "τ1{tend=1672531200000,tstart=1640995200000,ttype=logical}S2(13965,10939){bbox=[463430.23000000045 603090.2300000004 4702183.6800999995 4811583.6800999995],proj=EPSG:25830}",
  "projectName" : "im.data.euskadi",
  "localName" : "geoeuskadi.inventario_forestal_landcover_euskadi_epsg25830_10m_2022",
  "type" : "NUMBER",
  "resourceTimestamp" : 1720037687574,
  "metadata" : {
    "im:keywords" : "",
    "dc:comment" : "",
    "im:notes" : "",
    "dc:title" : "",
    "dc:url" : "",
    "dc:creator" : "",
    "im:thematic-area" : "",
    "dc:originator" : "",
    "im:geographic-area" : "",
    "dc:source" : ""
  },
  "parameters" : {
    "wcsIdentifier" : "geoeuskadi__inventario_forestal_landcover_euskadi_epsg25830_10m_2022",
    "transform" : "",
    "serviceUrl" : "https://integratedmodelling.org/aux-geoserver/geoeuskadi/wcs",
    "nodata" : "0.0",
    "wcsVersion" : "2.0.1"
  },
  "localPaths" : [ ],
  "history" : [ ],
  "notifications" : [ ],
  "attributes" : [ ],
  "spatialExtent" : {
    "east" : -1.7258858830974497,
    "west" : -3.4520216131346944,
    "north" : 43.45715824070133,
    "south" : 42.4651373534155,
    "gridResolution" : null,
    "gridUnit" : null
  },
  "dependencies" : null,
  "outputs" : null,
  "categorizables" : [ ],
  "codelists" : [ ],
  "availability" : null,
  "exportFormats" : { }
}