{
  "urn" : "local:benat_egidazu:im.data.euskadi:geoeuskadi.euskadi_annual_precip_rcp45_eqm_2041_2070_25830",
  "version" : "0.0.1",
  "adapterType" : "wcs",
  "localPath" : "im.data.euskadi/resources/geoeuskadi.euskadi_annual_precip_rcp45_eqm_2041_2070_25830.v0.0.1",
  "geometry" : "S2(228,157){bbox=[443416.9878028708 626684.6064566326 4693351.460772258 4819798.114690574],proj=EPSG:25830}",
  "projectName" : "im.data.euskadi",
  "localName" : "geoeuskadi.euskadi_annual_precip_rcp45_eqm_2041_2070_25830",
  "type" : "NUMBER",
  "resourceTimestamp" : 1675257716627,
  "metadata" : { },
  "parameters" : {
    "wcsIdentifier" : "geoeuskadi__euskadi_annual_precip_rcp45_eqm_2041_2070_25830",
    "transform" : "",
    "serviceUrl" : "https://integratedmodelling.org/aux-geoserver/wcs",
    "band" : "0",
    "nodata" : "-9999.990234375",
    "wcsVersion" : "2.0.1"
  },
  "localPaths" : [ ],
  "history" : [ ],
  "notifications" : [ ],
  "attributes" : [ ],
  "spatialExtent" : {
    "east" : -1.4324640101694908,
    "west" : -3.700234921439661,
    "north" : 43.53111178386778,
    "south" : 42.38212470392555,
    "gridResolution" : null,
    "gridUnit" : null
  },
  "dependencies" : null,
  "outputs" : null,
  "categorizables" : [ ],
  "codelists" : [ ],
  "availability" : null,
  "exportFormats" : { }
}