@relation solid_suspension_mass_to_area_of_watershed_ratio_of_reach_instances

@attribute solid_suspension_mass_to_area_of_watershed_ratio_of_reach numeric
@attribute area_of_watershed numeric
@attribute broadleaf_forest_proportion_area_of_watershed numeric
@attribute outgoing_stream_count numeric
@attribute riparian_broadleaf_forest_proportion_area_of_watershed numeric

@data
0,0,0,0,0
330000,750,0.45,3,1
258531.28,548.60681,0.21608,3,0.055255
185803.77,547.20142,0.21649,3,0.186815
18948.17,52.3832,0.20939,0,0.064775
21387.87,44.6188,0.20996,0,0
21682.23,44.4605,0.21063,0,0
27123.95,11.1833,0.30211,0,0.076925
25576.53,11.1317,0.30385,0,0
25898.26,11.0555,0.30556,0,0.185185
18340.74,9.7057,0.31693,0,0.188935
17912.2,9.65,0.31769,0,0.136365
16728.02,8.7313,0.30786,0,0.111115
16842.58,8.6068,0.30301,0,0.44463
17107.22,8.4123,0.29803,0,0.45
19169.99,7.9303,0.26845,0,0.45
18433.7,7.8093,0.26208,0,0.45
19436.85,7.542,0.26562,0,0.45
19414.82,7.3697,0.25214,0,0.45
18067.11,7.0373,0.24815,0,0.325
16435.65,6.5474,0.25189,0,0.14815
18407.23,6.179,0.23127,0,0.45
19587.67,32.7868,0.18263,0,0.059315
21981.73,32.6283,0.18328,0,0.117145
199763.97,494.77759,0.21725,3,0
162526.83,494.49249,0.21738,3,0
174440.27,494.31009,0.21745,3,0.09918
