{
  "urn" : "local:stefano.balbi:im.data.euskadi:bn.ss.load.low.simple.cutchange",
  "version" : "0.0.1",
  "adapterType" : "weka",
  "localPath" : "im.data.euskadi/resources/bn.ss.load.low.simple.cutchange",
  "geometry" : "T1(1){ttype=INITIALIZATION}S2(710,359){bbox=[-3.444204543698952 -3.3564869876432284 43.32787804351577 43.3600731966383],proj=EPSG:4326,shape=00000000030000000100000005C00B8DBB1C9F5F714045A9F7E860FD04C00ADA15D98B048D4045A9F7E860FD04C00ADA15D98B048D4045AE16E0E5DD24C00B8DBB1C9F5F714045AE16E0E5DD24C00B8DBB1C9F5F714045A9F7E860FD04}",
  "projectName" : "im.data.euskadi",
  "localName" : "bn.ss.load.low.simple.cutchange",
  "type" : "NUMBER",
  "resourceTimestamp" : 1602504901270,
  "metadata" : { },
  "parameters" : {
    "predicted.range" : "[0.0,330000.0]",
    "predictor.outgoing_stream_count.discretizer.options" : "-R 4  -B 3 -Y",
    "submitNodata" : "true",
    "predictor.broadleaf_forest_proportion_area_of_watershed.range" : "[0.0,0.45]",
    "classifier.file" : "classifier7168450235742380733.bin",
    "predictor.outgoing_stream_count.range" : "[0.0,3.0]",
    "predictor.riparian_broadleaf_forest_proportion_area_of_watershed.discretizer.cutpoints" : "[0.3333333333333333, 0.6666666666666666]",
    "predictor.outgoing_stream_count.discretizer.cutpoints" : "[1.0, 2.0]",
    "instances.file.raw" : "rawinstances5360002491272827285.arff",
    "predicted.index" : "1",
    "predictor.area_of_watershed.discretizer" : "weka.filters.unsupervised.attribute.Discretize",
    "predictor.riparian_broadleaf_forest_proportion_area_of_watershed.discretizer" : "weka.filters.unsupervised.attribute.Discretize",
    "classifier" : "weka.classifiers.bayes.BayesNet",
    "predictor.area_of_watershed.range" : "[0.0,750.0]",
    "predictor.riparian_broadleaf_forest_proportion_area_of_watershed.discretizer.options" : "-R 5  -B 3 -Y",
    "predicted.discretizer.options" : "-R 1  -B 3 -Y",
    "predictor.broadleaf_forest_proportion_area_of_watershed.discretizer" : "weka.filters.unsupervised.attribute.Discretize",
    "model" : "ml.waterquality.ratio-of-solid-suspension-mass-to-area-of-watershed-within-reach-learner",
    "predictor.outgoing_stream_count.index" : "4",
    "classifier.options" : " -Q weka.classifiers.bayes.net.search.local.K2 -- -P 1 -E weka.classifiers.bayes.net.estimate.SimpleEstimator -- -A 1.0",
    "predicted.discretizer" : "weka.filters.unsupervised.attribute.Discretize",
    "predicted.name" : "solid_suspension_mass_to_area_of_watershed_ratio_of_reach",
    "predictor.area_of_watershed.discretizer.cutpoints" : "[250.0, 500.0]",
    "instances.file" : "instances3132124262047581486.arff",
    "predictor.broadleaf_forest_proportion_area_of_watershed.discretizer.file" : "d_broadleaf_forest_proportion_area_of_watershed1007451613036013248.bin",
    "predictor.broadleaf_forest_proportion_area_of_watershed.discretizer.options" : "-R 3  -B 3 -Y",
    "predictor.riparian_broadleaf_forest_proportion_area_of_watershed.index" : "5",
    "predicted.discretizer.file" : "d_solid_suspension_mass_to_area_of_watershed_ratio_of_reach6224356273063965968.bin",
    "predictor.area_of_watershed.discretizer.file" : "d_area_of_watershed3233388797822589471.bin",
    "predictor.outgoing_stream_count.discretizer.file" : "d_outgoing_stream_count5535874184869648326.bin",
    "classifier.probabilistic" : "true",
    "predictor.riparian_broadleaf_forest_proportion_area_of_watershed.range" : "[0.0,1.0]",
    "predictor.riparian_broadleaf_forest_proportion_area_of_watershed.discretizer.file" : "d_riparian_broadleaf_forest_proportion_area_of_watershed7856703937907689989.bin",
    "predictor.broadleaf_forest_proportion_area_of_watershed.discretizer.cutpoints" : "[0.15, 0.3]",
    "predictor.outgoing_stream_count.discretizer" : "weka.filters.unsupervised.attribute.Discretize",
    "wekaVersion" : "3.8.3",
    "predictor.area_of_watershed.index" : "2",
    "predictor.area_of_watershed.discretizer.options" : "-R 2  -B 3 -Y",
    "predictor.broadleaf_forest_proportion_area_of_watershed.index" : "3",
    "predicted.discretizer.cutpoints" : "[110000.0, 220000.0]"
  },
  "localPaths" : [ "im.data.euskadi\\resources/bn.ss.load.low.simple.cutchange/d_solid_suspension_mass_to_area_of_watershed_ratio_of_reach6224356273063965968.bin", "im.data.euskadi\\resources/bn.ss.load.low.simple.cutchange/d_area_of_watershed3233388797822589471.bin", "im.data.euskadi\\resources/bn.ss.load.low.simple.cutchange/d_broadleaf_forest_proportion_area_of_watershed1007451613036013248.bin", "im.data.euskadi\\resources/bn.ss.load.low.simple.cutchange/d_outgoing_stream_count5535874184869648326.bin", "im.data.euskadi\\resources/bn.ss.load.low.simple.cutchange/d_riparian_broadleaf_forest_proportion_area_of_watershed7856703937907689989.bin", "im.data.euskadi\\resources/bn.ss.load.low.simple.cutchange/instances3132124262047581486.arff", "im.data.euskadi\\resources/bn.ss.load.low.simple.cutchange/rawinstances5360002491272827285.arff", "im.data.euskadi\\resources/bn.ss.load.low.simple.cutchange/classifier7168450235742380733.bin" ],
  "history" : [ ],
  "notifications" : [ ],
  "attributes" : [ ],
  "spatialExtent" : null,
  "dependencies" : [ {
    "name" : "area_of_watershed",
    "type" : "NUMBER",
    "key" : true,
    "optional" : true,
    "exampleValue" : null
  }, {
    "name" : "broadleaf_forest_proportion_area_of_watershed",
    "type" : "NUMBER",
    "key" : true,
    "optional" : true,
    "exampleValue" : null
  }, {
    "name" : "outgoing_stream_count",
    "type" : "NUMBER",
    "key" : true,
    "optional" : true,
    "exampleValue" : null
  }, {
    "name" : "riparian_broadleaf_forest_proportion_area_of_watershed",
    "type" : "NUMBER",
    "key" : true,
    "optional" : true,
    "exampleValue" : null
  } ],
  "outputs" : null,
  "exportFormats" : {
    "bif" : "BIF bayesian network (.bif)",
    "xdsl" : "GENIE bayesian network (.xdsl)",
    "arff" : "Training dataset (ARFF)",
    "arff#raw" : "Raw training dataset (ARFF)",
    "model" : "WEKA Classifier (.model)",
    "model#predicted" : "WEKA discretizer for the predicted variable (.model)",
    "model#area_of_watershed" : "WEKA Discretizer for Area of watershed (.model)",
    "model#broadleaf_forest_proportion_area_of_watershed" : "WEKA Discretizer for Broadleaf forest proportion area of watershed (.model)",
    "model#outgoing_stream_count" : "WEKA Discretizer for Outgoing stream count (.model)",
    "model#riparian_broadleaf_forest_proportion_area_of_watershed" : "WEKA Discretizer for Riparian broadleaf forest proportion area of watershed (.model)"
  }
}