{
  "urn" : "local:rain80818:im.data.euskadi:geoeuskadi.euskadi_neiker_rfactor_5m_epsg3345_1971_2010",
  "version" : "0.0.1",
  "adapterType" : "wcs",
  "localPath" : "im.data.euskadi/resources/geoeuskadi.euskadi_neiker_rfactor_5m_epsg3345_1971_2010",
  "geometry" : "τ1{tend=1293840000000,tscope=1.0,tstart=31536000000,ttype=logical,tunit=year}S2(29096,22203){bbox=[461031.0 606516.0 4700735.0 4811755.0],proj=EPSG:3345}",
  "projectName" : "im.data.euskadi",
  "localName" : "geoeuskadi.euskadi_neiker_rfactor_5m_epsg3345_1971_2010",
  "type" : "NUMBER",
  "resourceTimestamp" : 1688351515705,
  "metadata" : {
    "im:keywords" : "",
    "dc:comment" : "",
    "im:notes" : "",
    "dc:title" : "",
    "dc:url" : "",
    "dc:creator" : "",
    "im:thematic-area" : "",
    "dc:originator" : "",
    "im:geographic-area" : "",
    "dc:source" : ""
  },
  "parameters" : {
    "wcsIdentifier" : "geoeuskadi__euskadi_neiker_rfactor_5m_epsg3345_1971_2010",
    "transform" : "",
    "serviceUrl" : "http://192.168.250.122:8600/geoserver/geoeuskadi/ows",
    "nodata" : "-3.4E38",
    "wcsVersion" : "2.0.1"
  },
  "localPaths" : [ ],
  "history" : [ ],
  "notifications" : [ ],
  "attributes" : [ ],
  "spatialExtent" : {
    "east" : -1.6835234179148182,
    "west" : -3.481688605298408,
    "north" : 43.458698229533574,
    "south" : 42.45163059977916,
    "gridResolution" : null,
    "gridUnit" : null
  },
  "dependencies" : null,
  "outputs" : null,
  "categorizables" : [ ],
  "codelists" : [ ],
  "availability" : null,
  "exportFormats" : { }
}