{
  "urn" : "local:stefano.balbi:im.data.euskadi:Effluents",
  "version" : "0.0.1",
  "adapterType" : "raster",
  "localPath" : "im.data.euskadi/resources/Effluents.v0.0.1",
  "geometry" : "S2(363,309){bbox=[-2.7356140177329085 -2.572495465689279 43.22834787452427 43.367200856842395],proj=EPSG:4326}",
  "projectName" : "im.data.euskadi",
  "localName" : "Effluents.tif",
  "type" : "NUMBER",
  "resourceTimestamp" : 1653916308142,
  "metadata" : {
    "im:keywords" : "",
    "dc:comment" : "",
    "im:notes" : "",
    "dc:title" : "",
    "dc:url" : "",
    "dc:creator" : "",
    "im:thematic-area" : "",
    "dc:originator" : "",
    "im:geographic-area" : "",
    "dc:source" : ""
  },
  "parameters" : {
    "transform" : "",
    "nodata" : "128.0"
  },
  "localPaths" : [ "im.data.euskadi/resources/Effluents.v0.0.1/Effluents.tif", "im.data.euskadi/resources/Effluents.v0.0.1/Effluents.tif.ovr", "im.data.euskadi/resources/Effluents.v0.0.1/Effluents.tif.aux.xml" ],
  "history" : [ ],
  "notifications" : [ ],
  "attributes" : [ ],
  "spatialExtent" : {
    "east" : -2.572495465689279,
    "west" : -2.7356140177329085,
    "north" : 43.367200856842395,
    "south" : 43.22834787452427,
    "gridResolution" : null,
    "gridUnit" : null
  },
  "dependencies" : null,
  "outputs" : null,
  "categorizables" : [ ],
  "codelists" : [ ],
  "availability" : null,
  "exportFormats" : {
    "zip" : "GeoTiff"
  }
}