{
  "urn" : "local:rubencc:im.data.euskadi:im-data-euskadi.environmental_units_4326_urdaibai",
  "version" : "0.0.1",
  "adapterType" : "wcs",
  "localPath" : "im.data.euskadi/resources/im-data-euskadi.environmental_units_4326_urdaibai",
  "geometry" : "S2(2039,2696){bbox=[-2.772887181 -2.567604581 43.22316317443137 43.49455884707843],proj=EPSG:4326}",
  "projectName" : "im.data.euskadi",
  "localName" : "im-data-euskadi.environmental_units_4326_urdaibai",
  "type" : "NUMBER",
  "resourceTimestamp" : 1646310671249,
  "metadata" : {
    "im:keywords" : "EUNIS, Environmental Units, 2009, Basque Country",
    "dc:comment" : "Classification of the different environmental units in 2009 at the territory of urdabai reprojected at 4326 SRC. Its identification is carried out by grouping all the EUNIS habitats present in the Basque Country, taking into account different factors (structure, naturality, use, etc.).\r\n\r\nThis information is published by the Basque Government under the terms of the Creative Commons-Recognition (CC-by 3.0) license.",
    "im:notes" : "",
    "dc:title" : "2009 Environmental units of urdaibai",
    "dc:url" : "https://www.geo.euskadi.eus/geograficos/servicios-de-los-ecosistemas/s69-geodir/es/",
    "dc:creator" : "Eusko Jaurlaritza/Gobierno Vasco",
    "im:thematic-area" : "Landcover",
    "dc:originator" : "Gobierno Vasco, Diputación Foral de Bizkaia",
    "im:geographic-area" : "Global",
    "dc:source" : "Cátedra UNESCO sobre Desarrollo Sostenible y Educación Ambiental de la UPV (2018). Guía metodológica para el cartografiado de los Servicios de los Ecosistemas de Euskadi."
  },
  "parameters" : {
    "wcsIdentifier" : "im-data-euskadi__environmental_units_4326_urdaibai",
    "transform" : "",
    "serviceUrl" : "https://integratedmodelling.org/geoserver/ows",
    "nodata" : "255.0",
    "wcsVersion" : "2.0.1"
  },
  "localPaths" : [ ],
  "history" : [ ],
  "notifications" : [ ],
  "attributes" : [ ],
  "spatialExtent" : {
    "east" : -2.567604581,
    "west" : -2.772887181,
    "north" : 43.49455884707843,
    "south" : 43.22316317443137,
    "gridResolution" : null,
    "gridUnit" : null
  },
  "dependencies" : null,
  "outputs" : null,
  "categorizables" : [ ],
  "codelists" : [ ],
  "availability" : null,
  "exportFormats" : { }
}