{
  "urn" : "local:Benat_Egidazu:im.data.euskadi:urbaso_actual.escenario_actual_2027_1m_25830",
  "version" : "0.0.1",
  "adapterType" : "wcs",
  "localPath" : "im.data.euskadi/resources/urbaso_actual.escenario_actual_2027_1m_25830",
  "geometry" : "τ1{tend=1830297600000,tstart=1798761600000,ttype=logical}S2(3274,10619){bbox=[519440.0 522715.0 4791110.0 4801730.0],proj=EPSG:25830}",
  "projectName" : "im.data.euskadi",
  "localName" : "urbaso_actual.escenario_actual_2027_1m_25830",
  "type" : "NUMBER",
  "resourceTimestamp" : 1678287230542,
  "metadata" : {
    "im:keywords" : "",
    "dc:comment" : "",
    "im:notes" : "",
    "dc:title" : "",
    "dc:url" : "",
    "dc:creator" : "",
    "im:thematic-area" : "",
    "dc:originator" : "",
    "im:geographic-area" : "",
    "dc:source" : ""
  },
  "parameters" : {
    "wcsIdentifier" : "urbaso_actual__escenario_actual_2027_1m_25830",
    "transform" : "",
    "serviceUrl" : "https://integratedmodelling.org/aux-geoserver/wcs",
    "nodata" : "-3.4028234663852886E38",
    "wcsVersion" : "2.0.1"
  },
  "localPaths" : [ ],
  "history" : [ ],
  "notifications" : [ ],
  "attributes" : [ ],
  "spatialExtent" : {
    "east" : -2.719637588516186,
    "west" : -2.760435276518176,
    "north" : 43.36818152437171,
    "south" : 43.27246203508455,
    "gridResolution" : null,
    "gridUnit" : null
  },
  "dependencies" : null,
  "outputs" : null,
  "categorizables" : [ ],
  "codelists" : [ ],
  "availability" : null,
  "exportFormats" : { }
}