{
  "urn" : "local:stefano.balbi:im.data.euskadi:bn.no3.load.low.simple.cutchange",
  "version" : "0.0.1",
  "adapterType" : "weka",
  "localPath" : "im.data.euskadi/resources/bn.no3.load.low.simple.cutchange",
  "geometry" : "T1(1){ttype=INITIALIZATION}S2(363,183){bbox=[-3.4451288593581046 -3.355562671984076 43.32753869915257 43.36041235918819],proj=EPSG:4326,shape=00000000030000000100000005C00B8F9FB82B973B4045A9ECC9C08470C00AD8313DFECCC34045A9ECC9C08470C00AD8313DFECCC34045AE21FDFFE4CCC00B8F9FB82B973B4045AE21FDFFE4CCC00B8F9FB82B973B4045A9ECC9C08470}",
  "projectName" : "im.data.euskadi",
  "localName" : "bn.no3.load.low.simple.cutchange",
  "type" : "NUMBER",
  "resourceTimestamp" : 1602504910121,
  "metadata" : { },
  "parameters" : {
    "predicted.range" : "[0.0,150000.0]",
    "submitNodata" : "true",
    "predictor.broadleaf_forest_proportion_area_of_watershed.range" : "[0.0,0.45]",
    "classifier.file" : "classifier5931571158199290976.bin",
    "predictor.riparian_broadleaf_forest_proportion_area_of_watershed.discretizer.cutpoints" : "[0.3333333333333333, 0.6666666666666666]",
    "instances.file.raw" : "rawinstances4717347806782386646.arff",
    "predicted.index" : "1",
    "predictor.area_of_watershed.discretizer" : "weka.filters.unsupervised.attribute.Discretize",
    "predictor.riparian_broadleaf_forest_proportion_area_of_watershed.discretizer" : "weka.filters.unsupervised.attribute.Discretize",
    "classifier" : "weka.classifiers.bayes.BayesNet",
    "predictor.area_of_watershed.range" : "[0.0,750.0]",
    "predictor.riparian_broadleaf_forest_proportion_area_of_watershed.discretizer.options" : "-R 4  -B 3 -Y",
    "predicted.discretizer.options" : "-R 1  -B 3 -Y",
    "predictor.broadleaf_forest_proportion_area_of_watershed.discretizer" : "weka.filters.unsupervised.attribute.Discretize",
    "model" : "ml.waterquality.ratio-of-nitrate-mass-to-area-of-watershed-within-reach-learner",
    "classifier.options" : " -Q weka.classifiers.bayes.net.search.local.K2 -- -P 1 -E weka.classifiers.bayes.net.estimate.SimpleEstimator -- -A 1.0",
    "predicted.discretizer" : "weka.filters.unsupervised.attribute.Discretize",
    "predicted.name" : "nitrate_mass_to_area_of_watershed_ratio_of_reach",
    "predictor.area_of_watershed.discretizer.cutpoints" : "[250.0, 500.0]",
    "instances.file" : "instances7267873908355120093.arff",
    "predictor.broadleaf_forest_proportion_area_of_watershed.discretizer.file" : "d_broadleaf_forest_proportion_area_of_watershed4397199387903580901.bin",
    "predictor.broadleaf_forest_proportion_area_of_watershed.discretizer.options" : "-R 3  -B 3 -Y",
    "predictor.riparian_broadleaf_forest_proportion_area_of_watershed.index" : "4",
    "predicted.discretizer.file" : "d_nitrate_mass_to_area_of_watershed_ratio_of_reach5398609386091587412.bin",
    "predictor.area_of_watershed.discretizer.file" : "d_area_of_watershed3345719265669702559.bin",
    "classifier.probabilistic" : "true",
    "predictor.riparian_broadleaf_forest_proportion_area_of_watershed.range" : "[0.0,1.0]",
    "predictor.riparian_broadleaf_forest_proportion_area_of_watershed.discretizer.file" : "d_riparian_broadleaf_forest_proportion_area_of_watershed1196685253278185539.bin",
    "predictor.broadleaf_forest_proportion_area_of_watershed.discretizer.cutpoints" : "[0.15, 0.3]",
    "wekaVersion" : "3.8.3",
    "predictor.area_of_watershed.index" : "2",
    "predictor.area_of_watershed.discretizer.options" : "-R 2  -B 3 -Y",
    "predictor.broadleaf_forest_proportion_area_of_watershed.index" : "3",
    "predicted.discretizer.cutpoints" : "[50000.0, 100000.0]"
  },
  "localPaths" : [ "im.data.euskadi\\resources/bn.no3.load.low.simple.cutchange/d_nitrate_mass_to_area_of_watershed_ratio_of_reach5398609386091587412.bin", "im.data.euskadi\\resources/bn.no3.load.low.simple.cutchange/d_area_of_watershed3345719265669702559.bin", "im.data.euskadi\\resources/bn.no3.load.low.simple.cutchange/d_broadleaf_forest_proportion_area_of_watershed4397199387903580901.bin", "im.data.euskadi\\resources/bn.no3.load.low.simple.cutchange/d_riparian_broadleaf_forest_proportion_area_of_watershed1196685253278185539.bin", "im.data.euskadi\\resources/bn.no3.load.low.simple.cutchange/instances7267873908355120093.arff", "im.data.euskadi\\resources/bn.no3.load.low.simple.cutchange/rawinstances4717347806782386646.arff", "im.data.euskadi\\resources/bn.no3.load.low.simple.cutchange/classifier5931571158199290976.bin" ],
  "history" : [ ],
  "notifications" : [ ],
  "attributes" : [ ],
  "spatialExtent" : null,
  "dependencies" : [ {
    "name" : "area_of_watershed",
    "type" : "NUMBER",
    "key" : true,
    "optional" : true,
    "exampleValue" : null
  }, {
    "name" : "broadleaf_forest_proportion_area_of_watershed",
    "type" : "NUMBER",
    "key" : true,
    "optional" : true,
    "exampleValue" : null
  }, {
    "name" : "riparian_broadleaf_forest_proportion_area_of_watershed",
    "type" : "NUMBER",
    "key" : true,
    "optional" : true,
    "exampleValue" : null
  } ],
  "outputs" : null,
  "exportFormats" : {
    "bif" : "BIF bayesian network (.bif)",
    "xdsl" : "GENIE bayesian network (.xdsl)",
    "arff" : "Training dataset (ARFF)",
    "arff#raw" : "Raw training dataset (ARFF)",
    "model" : "WEKA Classifier (.model)",
    "model#predicted" : "WEKA discretizer for the predicted variable (.model)",
    "model#area_of_watershed" : "WEKA Discretizer for Area of watershed (.model)",
    "model#broadleaf_forest_proportion_area_of_watershed" : "WEKA Discretizer for Broadleaf forest proportion area of watershed (.model)",
    "model#riparian_broadleaf_forest_proportion_area_of_watershed" : "WEKA Discretizer for Riparian broadleaf forest proportion area of watershed (.model)"
  }
}