{
  "urn" : "local:stefano.balbi:im.data.euskadi:mn_uhd",
  "version" : "0.0.1",
  "adapterType" : "raster",
  "localPath" : "im.data.euskadi/resources/mn_uhd.v0.0.1",
  "geometry" : "S2(363,309){bbox=[-2.7356140177329085 -2.5724954656892787 43.22834787452427 43.367200856842395],proj=EPSG:4326}",
  "projectName" : "im.data.euskadi",
  "localName" : "mn_uhd.tif",
  "type" : "NUMBER",
  "resourceTimestamp" : 1654000476458,
  "metadata" : { },
  "parameters" : {
    "transform" : "",
    "nodata" : "-3.4028234663852886E38"
  },
  "localPaths" : "im.data.euskadi/resources/mn_uhd.v0.0.1/mn_uhd.tif",
  "history" : [ ],
  "notifications" : [ ],
  "attributes" : [ ],
  "spatialExtent" : {
    "east" : -2.5724954656892787,
    "west" : -2.7356140177329085,
    "north" : 43.367200856842395,
    "south" : 43.22834787452427,
    "gridResolution" : null,
    "gridUnit" : null
  },
  "dependencies" : null,
  "outputs" : null,
  "categorizables" : [ ],
  "codelists" : [ ],
  "availability" : null,
  "exportFormats" : {
    "zip" : "GeoTiff"
  }
}