{
  "saltmarsh.distribution#Definition#Results" : {
    "trigger" : "DEFINITION",
    "sectionRole" : "RESULTS",
    "section" : "Results",
    "documentedId" : "saltmarsh.distribution",
    "extended" : null,
    "template" : "@section(Saltmarsh Distributions in Climate Change Scenarios)\r\n\r\nThe results obtained from the model are shown in the table. As we can see, the area of *high marsh* will be reduced in the different climate change scenarios, regardless wich scenario is projected. Moreover, the *low marsh* area will increase due to the sea level rise. The total area of the Urdaibai saltmarshes will also increase in both climate change scenarios(RCP4.5 & RCP8.5).\r\n\r\n",
    "sectionType" : "BODY",
    "documentedUrns" : [ ],
    "eventType" : null,
    "variables" : { }
  },
  "saltmarsh.distribution#Definition#Discussion" : {
    "trigger" : "DEFINITION",
    "sectionRole" : "DISCUSSION",
    "section" : "Discussion",
    "documentedId" : "saltmarsh.distribution",
    "extended" : null,
    "template" : "@section(Saltmarsh Distributions in Climate Change Scenarios)\r\n\r\nThe results show that sea level rise will increase the inundability of the system as actual (2017) *high marshes* will be converted to *low marshes* because of the sea level rise. The quantity of *high marsh* area will depend on the projected climate change scenario but all those scenarios will lead to an increase of the inundation of the system. The extrapolation of the results to other saltmarshes is not recommended as the evolution of this systems depend on site specific characteristics(sediment concentration, elevation, halophytic species and their productivity, etc.)\r\n",
    "sectionType" : "BODY",
    "documentedUrns" : [ ],
    "eventType" : null,
    "variables" : { }
  },
  "saltmarsh.distribution#Definition#Methods" : {
    "trigger" : "DEFINITION",
    "sectionRole" : "METHODS",
    "section" : "Methods",
    "documentedId" : "saltmarsh.distribution",
    "extended" : null,
    "template" : "@section(Saltmarsh Distributions in Climate Change Scenarios)\r\n\r\nTo study the influence of sea level rise in the Urdaibai saltmarshes according to the climate change scenarios RCP4.5 and RCP8.5, a predictive model adapted from Kirwan & Murray (2007)  was developed. This model takes into account the characteristics of the different types of saltmarshes present in the Oka estuary (natural saltmarshes, reclaimed saltmarshes, regenerating saltmarshes and grasslands that are going to be flooded with the sea level rise) as well as different parameters such as halophytic species productivity, saltmarsh elevation and sediment concentration. The model plays dynamically with the differences between sedimentation and sea level rise to obtain the saltmarsh distribution in the different climate change scenarios.\r\n\r\nFor more information see https://rodin.uca.es/handle/10498/25638\r\n",
    "sectionType" : "BODY",
    "documentedUrns" : [ ],
    "eventType" : null,
    "variables" : { }
  },
  "saltmarsh.es#Definition#Results" : {
    "trigger" : "DEFINITION",
    "sectionRole" : "RESULTS",
    "section" : "Results",
    "documentedId" : "saltmarsh.es",
    "extended" : null,
    "template" : "@section(Saltmarsh Ecosystem Services)\r\n\r\nThe results show the amount of ecosystem services that saltmarshes bring to society.  The actual ecosystem service value supply of the Urdaibai saltmarshes is approximately 3.3 million dollars per year.  According to the scenarios RCP4.5 and RCP8.5, in contrast, the values of the ecosystem services supply is approximately 4.6 millions of dollars and 4.5 millions o dollars, respectively, according to the 2100 saltmarsh distributions areas. Even so, the ecosystem services provided by the marshes are expected to increase regardless of the scenario due to the increase in marsh area with sea level rise.\r\n\r\n\r\n",
    "sectionType" : "BODY",
    "documentedUrns" : [ ],
    "eventType" : null,
    "variables" : { }
  },
  "saltmarsh.actual#Definition#Introduction" : {
    "trigger" : "DEFINITION",
    "sectionRole" : "INTRODUCTION",
    "section" : "Introduction",
    "documentedId" : "saltmarsh.actual",
    "extended" : null,
    "template" : "@require(im.aries.urdaibai.saltmarshes, Introduction)",
    "sectionType" : "BODY",
    "documentedUrns" : [ ],
    "eventType" : null,
    "variables" : { }
  },
  "saltmarsh.distribution#Definition#Conclusions" : {
    "trigger" : "DEFINITION",
    "sectionRole" : "CONCLUSIONS",
    "section" : "Conclusions",
    "documentedId" : "saltmarsh.distribution",
    "extended" : null,
    "template" : "@section(Saltmarsh Distributions in Climate Change Scenarios)\r\n\r\nThe sea level rise will increase the area of the Urdaibai saltmarshes due to the colonization of terrestrial areas by halophitic species and the capacity of saltmarshes to adapt to sea level rise when the amount of sediment is the appropiate. As we have discussed in previous sections, the system will also evolve towards a more floodable one. For this reason, *high marsh* areas will be converted to *low marsh* areas with only some small areas of *high marsh* remaining in both scenarios, according to the 2100 year.\r\n\r\n@cite(Fagherazzi2004)@cite(Peralta2008)@cite(Barbier2011)@cite(Turner2015)@cite(Kirwan2007)",
    "sectionType" : "BODY",
    "documentedUrns" : [ ],
    "eventType" : null,
    "variables" : { }
  },
  "saltmarsh.es#Definition#Methods" : {
    "trigger" : "DEFINITION",
    "sectionRole" : "METHODS",
    "section" : "Methods",
    "documentedId" : "saltmarsh.es",
    "extended" : null,
    "template" : "@section(Saltmarsh Ecosystem Services)\r\n\r\nThe  total value of saltmarshes ecosystem services has been obtained using different valuations from literature. In this sence the nursery, carbon sequestration and birdwatching value has been obtained from (Luisetti *et al.*, 2011). In the latter, the 'Ornithological Yearbook' (2020) of the Orueta lagoon (Gautegiz-Arteaga) made by the Urdaibai Bird Center was also taken into account. Coastal protection, nutrient cycling and recreational fisheries values were obtained from (Barbier *et al.*, 2011). If the available data has a range, the average has been taken for the valuation. \r\n\r\n\r\n\r\n",
    "sectionType" : "BODY",
    "documentedUrns" : [ ],
    "eventType" : null,
    "variables" : { }
  },
  "saltmarsh.actual#Definition#Results" : {
    "trigger" : "DEFINITION",
    "sectionRole" : "RESULTS",
    "section" : "Results",
    "documentedId" : "saltmarsh.actual",
    "extended" : null,
    "template" : "@section(Actual Saltmarsh Distributions)\r\n\r\nThe results show the areas of actual saltmarshes in the Urdaibai estuary according to the applied methodology explained above. As the results show, the area of *low marshes* is larger than the *high marsh* area. This implies that the area with a more frecuent flooding is larger than the area with sporadic flooding.\r\n\r\n@cite(Fagherazzi2004)@cite(Peralta2008)@cite(Barbier2011)@cite(Turner2015)@cite(SaizDeMurieta2016)@cite(Chust2013)@cite(Puertos2019)",
    "sectionType" : "BODY",
    "documentedUrns" : [ ],
    "eventType" : null,
    "variables" : { }
  },
  "saltmarsh.distribution#Definition#Introduction" : {
    "trigger" : "DEFINITION",
    "sectionRole" : "INTRODUCTION",
    "section" : "Introduction",
    "documentedId" : "saltmarsh.distribution",
    "extended" : null,
    "template" : "@require(im.aries.urdaibai.saltmarshes, Introduction)\r\n\r\n@section(Saltmarsh Distributions in Climate Change Scenarios)\r\n\r\nThe feedbacks between sediment concentration, sediment uptake by plants, accumulation of below ground organic matter, productivity of halophyte species and exposure to flooding determine the functioning and evolution of coastal marshes. This together with the current situation of sea level rise and occupation of coastal areas threaten the fate of such valuable ecosystems (Perillo *et al.*, 2019).",
    "sectionType" : "BODY",
    "documentedUrns" : [ ],
    "eventType" : null,
    "variables" : { }
  },
  "saltmarsh.es#Definition#Introduction" : {
    "trigger" : "DEFINITION",
    "sectionRole" : "INTRODUCTION",
    "section" : "Introduction",
    "documentedId" : "saltmarsh.es",
    "extended" : null,
    "template" : "@require(im.aries.urdaibai.saltmarshes, Introduction)\r\n\r\n@section(Saltmarsh Ecosystem Services)\r\n\r\nSaltmarshes are one of the most valuable ecosystems in the world. They provide to society a huge amount of goods and services such as carbon secuestration, coastal protection, nutrient cycling, food provision, recreation, etc. (Barbier *et al.*, 2011; Turner *et al.*, 2015). In this sence, it is estimated that, only in England, they save 2.25 billion dollars each year in coastal protection (Turner *et al.*, 2015) and the carbon sequestration capacity of saltmarshes is 20 times greater than any terrestrial system (Duarte *et al.*, 2005; Mcleod *et al.*, 2011)\r\n\r\n",
    "sectionType" : "BODY",
    "documentedUrns" : [ ],
    "eventType" : null,
    "variables" : { }
  },
  "saltmarsh.es#Definition#Discussion" : {
    "trigger" : "DEFINITION",
    "sectionRole" : "DISCUSSION",
    "section" : "Discussion",
    "documentedId" : "saltmarsh.es",
    "extended" : null,
    "template" : "@section(Saltmarsh Ecosystem Services)\r\n\r\nThese assessments are just a demonstration of the range of values that the Urdaibai marshes can contribute to society in the different climate change scenarios. In no way can they be taken as real values. They are only orientative because they have been made with data from different sites of the world, so the reality could be significantly different from the given values. More site specific measurements are needed for more accurate assessment.\r\n\r\n@cite(Fagherazzi2004)@cite(Peralta2008)@cite(Barbier2011)@cite(Turner2015)@cite(Duarte2005)@cite(Mcleod2011)@cite(Luisetti2011)@cite(Perillo2019)",
    "sectionType" : "BODY",
    "documentedUrns" : [ ],
    "eventType" : null,
    "variables" : { }
  },
  "saltmarsh.actual#Definition#Methods" : {
    "trigger" : "DEFINITION",
    "sectionRole" : "METHODS",
    "section" : "Methods",
    "documentedId" : "saltmarsh.actual",
    "extended" : null,
    "template" : "@section(Actual Saltmarsh Distributions)\r\n\r\nThe actual saltmarsh distribution has been obtained taking into account previous studies in the Urdaibai Biosphere Reserve (Sainz de Murieta *et al.*, 2016), ortophotos available in GeoEuskadi (Spatial Data Infrastructure of Euskadi), in particular 1945-1946, 1956-1957, 1984-1985 and 2019 ortophotos, and field works where photos of 36 points of the estuary were taken to confirm the characterisation (for more information see  http://hdl.handle.net/10498/25638).\r\n\r\nOnce the marsh boundaries were delimited, they have been differenced into *low* and *high marsh* taking into account the lowest limit of saltmarshes in Urdaibai (Chust *et al.*, 2013), the Medium High Water Level and the Maximum Astronomic High Water Level obtained from Puertos del Estado (Puertos del Estado, 2019). In this sense, *low marsh* goes from the lowest limit of salmarsh species in Urdaibai to the Medium Water Level. On the other hand, *high marsh* goes from the Medium High Water Level to the Maximum Astronomic High Water Level.",
    "sectionType" : "BODY",
    "documentedUrns" : [ ],
    "eventType" : null,
    "variables" : { }
  }
}