{
  "urn" : "local:Benat_Egidazu:im.data.euskadi:klimatek.klimatek_escenario_urbaso_2052_1m_25830",
  "version" : "0.0.1",
  "adapterType" : "wcs",
  "localPath" : "im.data.euskadi/resources/klimatek.klimatek_escenario_urbaso_2052_1m_25830",
  "geometry" : "τ1{tend=2619302400000,tstart=2587680000000,ttype=logical}S2(16368,19366){bbox=[519081.0 535450.0 4785713.0 4805080.0],proj=EPSG:25830}",
  "projectName" : "im.data.euskadi",
  "localName" : "klimatek.klimatek_escenario_urbaso_2052_1m_25830",
  "type" : "NUMBER",
  "resourceTimestamp" : 1699529404837,
  "metadata" : {
    "im:keywords" : "",
    "dc:comment" : "",
    "im:notes" : "",
    "dc:title" : "",
    "dc:url" : "",
    "dc:creator" : "",
    "im:thematic-area" : "",
    "dc:originator" : "",
    "im:geographic-area" : "",
    "dc:source" : ""
  },
  "parameters" : {
    "wcsIdentifier" : "klimatek__klimatek_escenario_urbaso_2052_1m_25830",
    "transform" : "",
    "serviceUrl" : "https://integratedmodelling.org/aux-geoserver/klimatek/wcs",
    "nodata" : "-3.4028234663852886E38",
    "wcsVersion" : "2.0.1"
  },
  "localPaths" : [ ],
  "history" : [ ],
  "notifications" : [ ],
  "attributes" : [ ],
  "spatialExtent" : {
    "east" : -2.5622411443072863,
    "west" : -2.765046166161019,
    "north" : 43.398355504065755,
    "south" : 43.22337340715879,
    "gridResolution" : null,
    "gridUnit" : null
  },
  "dependencies" : null,
  "outputs" : null,
  "categorizables" : [ ],
  "codelists" : [ ],
  "availability" : null,
  "exportFormats" : { }
}