{
  "urn" : "local:rubencc:im.data.euskadi:im-data-euskadi.aspect_degrees_4326_urdaibai",
  "version" : "0.0.1",
  "adapterType" : "wcs",
  "localPath" : "im.data.euskadi/resources/im-data-euskadi.aspect_degrees_4326_urdaibai",
  "geometry" : "S2(19388,25637){bbox=[-2.772889208055434 -2.567648054666423 43.22316328977391 43.49455287616761],proj=EPSG:4326}",
  "projectName" : "im.data.euskadi",
  "localName" : "im-data-euskadi.aspect_degrees_4326_urdaibai",
  "type" : "NUMBER",
  "resourceTimestamp" : 1646310411891,
  "metadata" : {
    "im:keywords" : "aspect, urdaibai",
    "dc:comment" : "Raster representation of the urdabai aspect territory in degrees reprojected at 4326 SRC (Planar method was used to obtain the aspect from the Digital Elevation Model). The used Digital Elevation Model to obtain  the aspect is from 2017 (https://www.geo.euskadi.eus/modelo-digital-del-terreno-mdt-1m-comunidad-autonoma-del-pais-vasco-ano-2017/s69-geodir/es/).\r\n\r\nAs the Digital Elevation Model of origin, the aspect data has a 1 per 1 meters grid.",
    "im:notes" : "",
    "dc:title" : "Aspect of the urdaibai territory",
    "dc:url" : "https://www.geo.euskadi.eus/modelo-digital-del-terreno-mdt-1m-comunidad-autonoma-del-pais-vasco-ano-2017/s69-geodir/es/",
    "dc:creator" : "",
    "im:thematic-area" : "Geography",
    "dc:originator" : "Geoeuskadi",
    "im:geographic-area" : "Global",
    "dc:source" : ""
  },
  "parameters" : {
    "wcsIdentifier" : "im-data-euskadi__aspect_degrees_4326_urdaibai",
    "transform" : "",
    "serviceUrl" : "https://integratedmodelling.org/geoserver/ows",
    "nodata" : "3.3999999521443642E38",
    "wcsVersion" : "2.0.1"
  },
  "localPaths" : [ ],
  "history" : [ ],
  "notifications" : [ ],
  "attributes" : [ ],
  "spatialExtent" : {
    "east" : -2.567648054666423,
    "west" : -2.772889208055434,
    "north" : 43.49455287616761,
    "south" : 43.22316328977391,
    "gridResolution" : null,
    "gridUnit" : null
  },
  "dependencies" : null,
  "outputs" : null,
  "categorizables" : [ ],
  "codelists" : [ ],
  "availability" : null,
  "exportFormats" : { }
}