{
  "urn" : "local:stefano.balbi:im.data.euskadi:Catch_area",
  "version" : "0.0.1",
  "adapterType" : "raster",
  "localPath" : "im.data.euskadi/resources/Catch_area.v0.0.1",
  "geometry" : "S2(363,309){bbox=[-2.7356140177329085 -2.572495465689279 43.22834787452427 43.367200856842395],proj=EPSG:4326}",
  "projectName" : "im.data.euskadi",
  "localName" : "Catch_area.tif",
  "type" : "NUMBER",
  "resourceTimestamp" : 1653471466963,
  "metadata" : { },
  "parameters" : {
    "transform" : "",
    "nodata" : "-3.4028234663852886E38"
  },
  "localPaths" : [ "im.data.euskadi/resources/Catch_area.v0.0.1/Catch_area.tif.ovr", "im.data.euskadi/resources/Catch_area.v0.0.1/Catch_area.tfw", "im.data.euskadi/resources/Catch_area.v0.0.1/Catch_area.tif", "im.data.euskadi/resources/Catch_area.v0.0.1/Catch_area.tif.aux.xml" ],
  "history" : [ ],
  "notifications" : [ ],
  "attributes" : [ ],
  "spatialExtent" : {
    "east" : -2.572495465689279,
    "west" : -2.7356140177329085,
    "north" : 43.367200856842395,
    "south" : 43.22834787452427,
    "gridResolution" : null,
    "gridUnit" : null
  },
  "dependencies" : null,
  "outputs" : null,
  "categorizables" : [ ],
  "codelists" : [ ],
  "availability" : null,
  "exportFormats" : {
    "zip" : "GeoTiff"
  }
}