{
  "urn" : "local:rubencc:im.data.euskadi:im-data-euskadi.saltmarsh_pot_rcp45_2050_4326_urdaibai",
  "version" : "0.0.1",
  "adapterType" : "wcs",
  "localPath" : "im.data.euskadi/resources/im-data-euskadi.saltmarsh_pot_rcp45_2050_4326_urdaibai",
  "geometry" : "τ1{tend=2556144000000,tstart=2524608000000,ttype=logical}S2(19308,25613){bbox=[-2.7727304264078168 -2.568332280811223 43.223406734043 43.49454734729647],proj=EPSG:4326}",
  "projectName" : "im.data.euskadi",
  "localName" : "im-data-euskadi.saltmarsh_pot_rcp45_2050_4326_urdaibai",
  "type" : "NUMBER",
  "resourceTimestamp" : 1653990764033,
  "metadata" : {
    "im:keywords" : "Saltmarsh, Climate Change, Urdaibai, RCP 4.5, 2050",
    "dc:comment" : "The potential distribution of the Urdaibai saltmarshes are obtained applying a model that plays in a dynamic way with the deposition rates caused by different factors (sediment concentration, sediment capture by plants, belowground organic matter accumulation, primary productivity of saltmarsh species, saltmarsh characteristics and exposure to inundation) each year and the predicted sea level rise rate (Sainz De Murieta et al., 2018) in each Climate Change Scenario.\r\n\r\nMore information will be available when the results of the study are published.",
    "im:notes" : "",
    "dc:title" : "Potential Distribution of the Urdaibai Saltmarshes in 2050 according to RCP4.5",
    "dc:url" : " http://hdl.handle.net/10498/25638",
    "dc:creator" : "",
    "im:thematic-area" : "Ecology",
    "dc:originator" : "",
    "im:geographic-area" : "Global",
    "dc:source" : "Sainz de Murieta, E., Abadie, L. M. y Galarraga, I. (2018). Aumento del nivel del mar en la costa vasca: una aproximación probabilística. Ekonomiaz, 94 (2º semestre)."
  },
  "parameters" : {
    "wcsIdentifier" : "im-data-euskadi__saltmarsh_pot_rcp45_2050_4326_urdaibai",
    "transform" : "",
    "serviceUrl" : "https://integratedmodelling.org/geoserver/ows",
    "nodata" : "65535.0",
    "wcsVersion" : "2.0.1"
  },
  "localPaths" : [ ],
  "history" : [ ],
  "notifications" : [ ],
  "attributes" : [ ],
  "spatialExtent" : {
    "east" : -2.568332280811223,
    "west" : -2.7727304264078168,
    "north" : 43.49454734729647,
    "south" : 43.223406734043,
    "gridResolution" : null,
    "gridUnit" : null
  },
  "dependencies" : null,
  "outputs" : null,
  "categorizables" : [ ],
  "codelists" : [ ],
  "availability" : null,
  "exportFormats" : { }
}