{
  "urn" : "local:rubencc:im.data.euskadi:im-data-euskadi.soil_organic_carbon_4326_urdaibai",
  "version" : "0.0.1",
  "adapterType" : "wcs",
  "localPath" : "im.data.euskadi/resources/im-data-euskadi.soil_organic_carbon_4326_urdaibai",
  "geometry" : "S2(1938,2563){bbox=[-2.7728871810811886 -2.5675812411363936 43.22308286605362 43.4945652951503],proj=EPSG:4326}",
  "projectName" : "im.data.euskadi",
  "localName" : "im-data-euskadi.soil_organic_carbon_4326_urdaibai",
  "type" : "NUMBER",
  "resourceTimestamp" : 1646310662633,
  "metadata" : {
    "im:keywords" : "Soil, Organic, Carbon",
    "dc:comment" : "Raster representation of the urdabai ammount of soil organic carbon in the first 30 centimeters of soil reprojected at 4326 SRC. The modelling of the organic carbon content in the first 30 cm of mineral soils (mg C ha-1) in the Basque Country was carried out using 12,122 geo-referenced analytical samples.\r\n\r\nThis information is published by the Basque Government under the terms of the Creative Commons-Recognition (CC-by 3.0) license.",
    "im:notes" : "More information in: https://www.geo.euskadi.eus/mapa-de-existencias-de-carbono-y-mapa-de-textura-para-los-suelos-de-la-capv/s69-geodir/es/",
    "dc:title" : "Soil organic carbon of urdaibai",
    "dc:url" : "https://www.geo.euskadi.eus/cartografia/DatosDescarga/",
    "dc:creator" : "Eusko Jaurlaritza/Gobierno Vasco;\r\nIHOBE",
    "im:thematic-area" : "Soil",
    "dc:originator" : "GeoEuskadi",
    "im:geographic-area" : "Global",
    "dc:source" : ""
  },
  "parameters" : {
    "wcsIdentifier" : "im-data-euskadi__soil_organic_carbon_4326_urdaibai",
    "transform" : "",
    "serviceUrl" : "https://integratedmodelling.org/geoserver/ows",
    "nodata" : "3.3999999521443642E38",
    "wcsVersion" : "2.0.1"
  },
  "localPaths" : [ ],
  "history" : [ ],
  "notifications" : [ ],
  "attributes" : [ ],
  "spatialExtent" : {
    "east" : -2.5675812411363936,
    "west" : -2.7728871810811886,
    "north" : 43.4945652951503,
    "south" : 43.22308286605362,
    "gridResolution" : null,
    "gridUnit" : null
  },
  "dependencies" : null,
  "outputs" : null,
  "categorizables" : [ ],
  "codelists" : [ ],
  "availability" : null,
  "exportFormats" : { }
}