{
  "urn" : "local:alessio.bulckaen:im.data.euskadi:geoeuskadi_comarcas_5000_etrs890",
  "version" : "0.0.1",
  "adapterType" : "wfs",
  "localPath" : "im.data.euskadi/resources/geoeuskadi_comarcas_5000_etrs890",
  "geometry" : "#s2(20){bbox=[462843.62604606093 604739.5462469016 4701430.807717613 4812366.725738575],proj=EPSG:25830}",
  "projectName" : "im.data.euskadi",
  "localName" : "geoeuskadi_comarcas_5000_etrs890",
  "type" : "OBJECT",
  "resourceTimestamp" : 1714490668154,
  "metadata" : {
    "im:keywords" : "features,comarcas_5000_etrs89",
    "dc:title" : "comarcas_5000_etrs89"
  },
  "parameters" : {
    "serviceUrl" : "https://integratedmodelling.org/aux-geoserver/geoeuskadi/ows",
    "wfsVersion" : "1.0.0",
    "wfsIdentifier" : "geoeuskadi:comarcas_5000_etrs890"
  },
  "localPaths" : [ ],
  "history" : [ ],
  "notifications" : [ ],
  "attributes" : [ {
    "name" : "objectid",
    "type" : "NUMBER",
    "key" : false,
    "optional" : true,
    "exampleValue" : null,
    "index" : 0
  }, {
    "name" : "comarca",
    "type" : "TEXT",
    "key" : false,
    "optional" : true,
    "exampleValue" : null,
    "index" : 0
  }, {
    "name" : "comarc_eus",
    "type" : "TEXT",
    "key" : false,
    "optional" : true,
    "exampleValue" : null,
    "index" : 0
  }, {
    "name" : "com_prov",
    "type" : "TEXT",
    "key" : false,
    "optional" : true,
    "exampleValue" : null,
    "index" : 0
  }, {
    "name" : "com_com",
    "type" : "TEXT",
    "key" : false,
    "optional" : true,
    "exampleValue" : null,
    "index" : 0
  }, {
    "name" : "shape_leng",
    "type" : "NUMBER",
    "key" : false,
    "optional" : true,
    "exampleValue" : null,
    "index" : 0
  }, {
    "name" : "shape_area",
    "type" : "NUMBER",
    "key" : false,
    "optional" : true,
    "exampleValue" : null,
    "index" : 0
  } ],
  "spatialExtent" : {
    "east" : -1.7053563207908264,
    "west" : -3.4593254909646878,
    "north" : 43.46420904636002,
    "south" : 42.45813753718601,
    "gridResolution" : null,
    "gridUnit" : null
  },
  "dependencies" : null,
  "outputs" : null,
  "categorizables" : [ ],
  "codelists" : [ ],
  "availability" : null,
  "exportFormats" : { }
}