{
  "urn" : "local:rubencc:im.data.euskadi:im-data-euskadi.sand_percentage_4326_urdaibai",
  "version" : "0.0.1",
  "adapterType" : "wcs",
  "localPath" : "im.data.euskadi/resources/im-data-euskadi.sand_percentage_4326_urdaibai",
  "geometry" : "S2(1938,2563){bbox=[-2.7728871810811886 -2.5675812411363936 43.22307432895562 43.4945666269068],proj=EPSG:4326}",
  "projectName" : "im.data.euskadi",
  "localName" : "im-data-euskadi.sand_percentage_4326_urdaibai",
  "type" : "NUMBER",
  "resourceTimestamp" : 1646310634048,
  "metadata" : {
    "im:keywords" : "Sand, Percentage",
    "dc:comment" : "Raster representation of the urdabai sand percentage reprojected at 4326 SRC.  The raster cell size is 10 x 10 meter. This information is published by the Basque Government under the terms of the Creative Commons-Recognition (CC-by 3.0) license.",
    "im:notes" : "",
    "dc:title" : "Sand percentage of the urdaibai territory",
    "dc:url" : "https://www.geo.euskadi.eus/cartografia/DatosDescarga/Medio_Ambiente/CarbonoOrganico_Texturas_Suelos/",
    "dc:creator" : "Eusko Jaurlaritza/Gobierno Vasco",
    "im:thematic-area" : "Soil",
    "dc:originator" : "Geoeuskadi",
    "im:geographic-area" : "Global",
    "dc:source" : ""
  },
  "parameters" : {
    "wcsIdentifier" : "im-data-euskadi__sand_percentage_4326_urdaibai",
    "transform" : "",
    "serviceUrl" : "https://integratedmodelling.org/geoserver/ows",
    "nodata" : "3.3999999521443642E38",
    "wcsVersion" : "2.0.1"
  },
  "localPaths" : [ ],
  "history" : [ ],
  "notifications" : [ ],
  "attributes" : [ ],
  "spatialExtent" : {
    "east" : -2.5675812411363936,
    "west" : -2.7728871810811886,
    "north" : 43.4945666269068,
    "south" : 43.22307432895562,
    "gridResolution" : null,
    "gridUnit" : null
  },
  "dependencies" : null,
  "outputs" : null,
  "categorizables" : [ ],
  "codelists" : [ ],
  "availability" : null,
  "exportFormats" : { }
}