@relation solid_suspension_mass_during_winter_to_area_of_watershed_ratio_of_reach_instances

@attribute solid_suspension_mass_during_winter_to_area_of_watershed_ratio_of_reach numeric
@attribute area_of_watershed numeric
@attribute riparian_broadleaf_forest_proportion_area_of_watershed numeric
@attribute broadleaf_forest_proportion_area_of_watershed numeric
@attribute high_stream_flow_event_count numeric

@data
0,0,0,0,0
1500000,750,1,0.45,10.5
1500000,548.60681,0.055255,0.21608,8.066989
1500000,547.20142,0.186815,0.21649,8.047882
650065.1148,52.3832,0.064775,0.20939,6.92717
584020.6495,44.6188,0,0.20996,7.108327
575077.1555,44.4605,0,0.21063,7.121038
398029.2997,11.1833,0.076925,0.30211,6.50042
348244.4098,11.1317,0,0.30385,6.518342
310145.3709,11.0555,0.185185,0.30556,6.521093
355166.2187,9.7057,0.188935,0.31693,6.495977
357782.0433,9.65,0.136365,0.31769,6.48932
370951.0193,8.7313,0.111115,0.30786,6.504946
376468.1742,8.6068,0.44463,0.30301,6.525432
369844.5467,8.4123,0.45,0.29803,6.533095
470592.1322,7.9303,0.45,0.26845,6.476003
468005.9012,7.8093,0.45,0.26208,6.485748
468857.9519,7.542,0.45,0.26562,6.475801
463986.663,7.3697,0.45,0.25214,6.593903
460615.8833,7.0373,0.325,0.24815,6.600374
462597.0439,6.5474,0.14815,0.25189,6.618461
535693.6609,6.179,0.45,0.23127,6.602759
450540.0811,32.7868,0.059315,0.18263,7.457494
517220.049,32.6283,0.117145,0.18328,7.461063
1500000,494.77759,0,0.21725,8.277711
1500000,494.49249,0,0.21738,8.280221
1500000,494.31009,0.09918,0.21745,8.280221
