GID,Province,Region,Pop_total,Pop_Male,Pop_Female,Sex_Ratio,Age_0to19_perc,Age_20to64_perc,Age_65_perc,Foreign_UE27_perc,Foreign_Other_perc
01001_94337,Alava,Alegría-Dulantzi,3170,1632,1538,1.06111833550065,23.3123028391167,63.596214511041,13.0914826498423,2.39747634069401,8.07570977917981
01002_82184,Alava,Amurrio,10416,5156,5260,0.980228136882129,19.4412442396313,56.7300307219662,23.8287250384025,1.62250384024578,6.05798771121352
01003_67557,Alava,Aramaio,1427,740,687,1.07714701601164,18.9908899789769,56.2018220042046,24.8072880168185,0.490539593552908,1.96215837421163
01004_63910,Alava,Artziniega,1888,928,960,0.966666666666667,21.0275423728814,59.5868644067797,19.385593220339,0.211864406779661,5.72033898305085
01006_97834,Alava,Armiñón,228,121,107,1.13084112149533,18.859649122807,67.5438596491228,13.5964912280702,2.63157894736842,6.14035087719298
01008_89632,Alava,Arratzua-Ubarrundia,1089,580,509,1.13948919449902,17.4471992653811,60.6060606060606,21.9467401285583,1.28558310376492,2.38751147842057
01009_91750,Alava,Asparrena,1628,812,816,0.995098039215686,16.0933660933661,61.3636363636364,22.5429975429975,1.35135135135135,7.24815724815725
01010_63855,Alava,Ayala/Aiara,2901,1454,1447,1.00483759502419,21.2340572216477,60.1172009651844,18.6487418131679,0.723888314374354,2.24060668734919
01011_109668,Alava,Baños de Ebro/Mañueta,318,182,136,1.33823529411765,9.11949685534591,65.7232704402516,25.1572327044025,17.6100628930818,4.08805031446541
01013_90978,Alava,Barrundia,913,513,400,1.2825,16.538882803943,61.3362541073384,22.1248630887185,0.766703176341731,2.51916757940854
01014_106902,Alava,Berantevilla,512,271,241,1.12448132780083,18.75,57.6171875,23.6328125,4.6875,5.46875
01016_107594,Alava,Bernedo,546,324,222,1.45945945945946,12.8205128205128,59.1575091575092,28.021978021978,0.366300366300366,5.67765567765568
01017_110936,Alava,Campezo/Kanpezu,1093,580,513,1.13060428849903,15.3705397987191,60.2012808783166,24.4281793229643,1.73833485818847,4.48307410795974
01018_87280,Alava,Zigoitia,1843,985,858,1.14801864801865,18.0141074335323,58.4915897992404,23.4943027672273,1.46500271296799,2.93000542593597
01019_108784,Alava,Kripan,185,97,88,1.10227272727273,12.4324324324324,62.7027027027027,24.8648648648649,4.32432432432432,0.540540540540541
01020_83523,Alava,Kuartango,389,219,170,1.28823529411765,17.4807197943445,55.5269922879177,26.9922879177378,1.02827763496144,2.05655526992288
01021_88696,Alava,Elburgo/Burgelu,665,346,319,1.0846394984326,18.3458646616541,65.2631578947368,16.390977443609,1.80451127819549,1.95488721804511
01022_110479,Alava,Elciego,992,495,497,0.995975855130785,18.2459677419355,57.4596774193548,24.2943548387097,5.24193548387097,4.33467741935484
01023_109647,Alava,Elvillar/ Bilar,326,159,167,0.952095808383233,13.1901840490798,58.2822085889571,28.5276073619632,5.8282208588957,4.60122699386503
01027_98902,Alava,Iruraiz-Gauna,579,319,260,1.22692307692308,13.6442141623489,64.7668393782383,21.5889464594128,1.03626943005181,2.59067357512953
01028_107726,Alava,Labastida/Bastida,1634,854,780,1.09487179487179,21.8482252141983,57.4051407588739,20.7466340269278,2.75397796817625,9.66952264381885
01030_109137,Alava,Lagrán,174,93,81,1.14814814814815,9.19540229885057,52.8735632183908,37.9310344827586,1.14942528735632,1.72413793103448
01031_110218,Alava,Laguardia,1565,850,715,1.18881118881119,16.8690095846645,60.702875399361,22.4281150159744,4.40894568690096,10.4153354632588
01032_111291,Alava,Lanciego/Lantziego,761,389,372,1.04569892473118,22.3390275952694,53.6136662286465,24.0473061760841,4.9934296977661,11.4323258869908
01033_110519,Alava,Lapuebla de Labarca,860,441,419,1.05250596658711,18.8372093023256,59.0697674418605,22.093023255814,4.18604651162791,7.44186046511628
01034_109058,Alava,Leza,224,115,109,1.05504587155963,17.8571428571429,54.4642857142857,27.6785714285714,3.125,15.1785714285714
01036_1223,Alava,Laudio/Llodio,18040,8714,9326,0.934377010508257,16.9512195121951,56.219512195122,26.8292682926829,0.482261640798226,5.9589800443459
01037_99863,Alava,Arraia-Maeztu,831,453,378,1.1984126984127,20.8182912154031,56.0770156438026,23.1046931407942,1.80505415162455,5.65583634175692
01039_111817,Alava,Moreda de Álava/Moreda Araba,255,140,115,1.21739130434783,8.23529411764706,62.7450980392157,29.0196078431373,0,5.09803921568627
01041_109890,Alava,Navaridas,226,127,99,1.28282828282828,13.2743362831858,66.8141592920354,19.9115044247788,18.141592920354,5.30973451327434
01042_62856,Alava,Okondo,1165,616,549,1.12204007285975,20.6008583690987,60.7725321888412,18.6266094420601,0.944206008583691,3.77682403433476
01043_111816,Alava,Oyón-Oion,3527,1794,1733,1.03519907674553,24.3549759001985,58.9736319818543,16.6713921179473,1.9279841224837,11.0292032889141
01044_107257,Alava,Peñacerrada-Urizaharra,324,188,136,1.38235294117647,11.7283950617284,66.0493827160494,22.2222222222222,0.617283950617284,2.77777777777778
01046_97254,Alava,Erriberagoitia/Ribera Alta,870,499,371,1.34501347708895,15.5172413793103,65.0574712643678,19.4252873563218,2.06896551724138,2.98850574712644
01047_97306,Alava,Ribera Baja/Erribera Beitia,1573,816,757,1.0779392338177,19.4532739987285,64.2720915448188,16.2746344564526,5.84869675778767,5.21296884933249
01049_95622,Alava,Añana,167,99,68,1.45588235294118,7.78443113772455,62.2754491017964,29.940119760479,0.598802395209581,4.19161676646707
01051_103760,Alava,Salvatierra/Agurain,5281,2691,2590,1.03899613899614,23.1774285173263,58.0571861389888,18.7653853436849,0.965726188221928,10.69873130089
01052_109423,Alava,Samaniego,287,149,138,1.07971014492754,19.5121951219512,62.7177700348432,17.7700348432056,6.96864111498258,9.75609756097561
01053_90979,Alava,San Millán/Donemiliaga,722,392,330,1.18787878787879,16.7590027700831,58.4487534626039,24.792243767313,1.52354570637119,1.66204986149584
01054_82392,Alava,Urkabustaiz,1483,782,701,1.11554921540656,21.1732973701955,63.7221847606204,15.1045178691841,1.48347943358058,8.49629130141605
01055_82499,Alava,Valdegovía/Gaubea,1136,623,513,1.21442495126706,11.2676056338028,58.7147887323944,30.0176056338028,2.55281690140845,4.31338028169014
01056_105654,Alava,Harana/Valle de Arana,228,126,102,1.23529411764706,10.0877192982456,52.1929824561403,37.719298245614,0.87719298245614,2.63157894736842
01057_110338,Alava,Villabuena de Álava/Eskuernaga,293,154,139,1.10791366906475,10.9215017064846,58.3617747440273,30.7167235494881,9.55631399317406,2.38907849829352
01058_85987,Alava,Legutio,2093,1078,1015,1.06206896551724,20.2102245580506,62.1595795508839,17.6301958910655,2.1978021978022,10.8456760630674
01059_89686,Alava,Vitoria-Gasteiz,251093,121489,129604,0.937386191784204,18.8324644653575,58.4166026133743,22.7509329212682,1.19238688454079,10.6167834228752
01060_111815,Alava,Yécora/Iekora,242,137,105,1.3047619047619,14.4628099173554,56.198347107438,29.3388429752066,4.95867768595041,5.37190082644628
01061_93531,Alava,Zalduondo,212,110,102,1.07843137254902,15.5660377358491,66.5094339622642,17.9245283018868,0,0.943396226415094
01062_106903,Alava,Zambrana,442,238,204,1.16666666666667,14.7058823529412,61.7647058823529,23.5294117647059,3.16742081447964,6.10859728506787
01063_67085,Alava,Zuia,2401,1260,1141,1.10429447852761,16.7846730528946,62.0991253644315,21.1162015826739,2.08246563931695,2.08246563931695
01901_99002,Alava,Iruña Oka/Iruña de Oca,3709,1979,1730,1.14393063583815,20.9220814235643,65.70504179024,13.3728767861957,2.45349150714478,9.73308169317875
01902_96695,Alava,Lantarón,995,565,430,1.31395348837209,13.9698492462312,59.8994974874372,26.1306532663317,3.91959798994975,5.12562814070352
48001_604,Bizkaia,Abadiño,7776,3838,3938,0.974606399187405,19.8559670781893,58.4876543209877,21.656378600823,1.8261316872428,5.61985596707819
48002_12092,Bizkaia,Abanto y Ciérvana-Abanto Zierbena,9359,4655,4704,0.989583333333333,16.5829682658404,62.0365423656374,21.3804893685223,0.352601773693771,3.7397157816006
48003_19660,Bizkaia,Amorebieta-Etxano,19251,9407,9844,0.955607476635514,19.9262375980469,58.7450002597268,21.3287621422264,5.64645992415978,5.20492441951068
48004_8864,Bizkaia,Amoroto,389,208,181,1.14917127071823,18.7660668380463,58.3547557840617,22.879177377892,0,3.8560411311054
48005_27231,Bizkaia,Arakaldo,179,81,98,0.826530612244898,20.6703910614525,68.1564245810056,11.1731843575419,0.558659217877095,5.58659217877095
48006_28663,Bizkaia,Arantzazu,416,219,197,1.11167512690355,20.9134615384615,56.9711538461538,22.1153846153846,0.961538461538462,8.41346153846154
48007_20158,Bizkaia,Munitibar -Arbatzegi Gerrikaitz-,463,257,206,1.24757281553398,13.6069114470842,64.14686825054,22.2462203023758,1.9438444924406,3.45572354211663
48008_9723,Bizkaia,Artzentales,703,365,338,1.07988165680473,14.5092460881935,60.0284495021337,25.4623044096728,0.284495021337127,1.5647226173542
48009_161,Bizkaia,Arrankudiaga,1011,507,504,1.00595238095238,19.9802176063304,60.1384767556874,19.8813056379822,0.29673590504451,4.35212660731949
48010_6381,Bizkaia,Arrieta,567,292,275,1.06181818181818,14.6384479717813,63.4920634920635,21.8694885361552,0.705467372134039,3.52733686067019
48011_12608,Bizkaia,Arrigorriaga,11712,5688,6024,0.944223107569721,18.5023907103825,60.9972677595628,20.5003415300546,1.05020491803279,5.14002732240437
48012_5188,Bizkaia,Bakio,2827,1408,1419,0.992248062015504,18.7477891758047,62.398302087018,18.8539087371772,1.20268836222144,4.35090201627167
48013_12883,Bizkaia,Barakaldo,99308,47799,51509,0.927973752159817,17.1224876142909,58.6397873283119,24.2377250573972,1.24360575180247,8.80291617996536
48014_4146,Bizkaia,Barrika,1591,810,781,1.0371318822023,16.7190446260214,59.7737272155877,23.5072281583909,2.19987429289755,4.27404148334381
48015_15113,Bizkaia,Basauri,40424,19472,20952,0.929362352042764,15.0133584009499,57.2531169602217,27.7335246388284,1.82812190777756,7.50791608945181
48016_2886,Bizkaia,Berango,7623,3691,3932,0.938708036622584,21.658139839958,60.3436967073331,17.9981634527089,1.39052866325594,3.79115833661288
48017_5187,Bizkaia,Bermeo,16969,8335,8634,0.965369469539032,17.7794802286522,58.4300783782191,23.7904413931286,3.30602864046202,7.46655666214862
48018_72,Bizkaia,Berriatua,1226,660,566,1.1660777385159,20.2283849918434,56.2805872756933,23.4910277324633,1.06035889070147,12.3980424143556
48019_22219,Bizkaia,Berriz,4549,2273,2276,0.998681898066784,20.9496592657727,56.6937788524951,22.3565618817322,2.52802813805232,7.91382721477248
48020_12990,Bizkaia,Bilbao,343188,162093,181095,0.895071647477843,15.5346340781146,59.4065060549903,25.0588598668951,1.29783092648927,10.0982551837477
48021_5849,Bizkaia,Busturia,1636,804,832,0.966346153846154,16.5647921760391,55.6234718826406,27.8117359413203,1.22249388753056,4.40097799511002
48022_9448,Bizkaia,Karrantza Harana/Valle de Carranza,2713,1412,1301,1.08531898539585,13.8223368964246,58.1643936601548,28.0132694434206,0.405455215628456,5.71323258385551
48023_951,Bizkaia,Artea,764,388,376,1.03191489361702,19.7643979057592,56.151832460733,24.0837696335079,0.785340314136126,5.23560209424084
48024_33,Bizkaia,Zeanuri,1236,609,627,0.971291866028708,17.7184466019417,59.3851132686084,22.8964401294498,1.53721682847896,3.07443365695793
48025_309,Bizkaia,Zeberio,1074,528,546,0.967032967032967,17.6908752327747,59.2178770949721,23.0912476722533,0.931098696461825,2.60707635009311
48026_307,Bizkaia,Dima,1501,775,726,1.06749311294766,19.8534310459694,60.8261159227182,19.3204530313125,1.46568954030646,3.13124583610926
48027_24600,Bizkaia,Durango,29902,14527,15375,0.944845528455285,18.7880409337168,60.8889037522574,20.3230553140258,1.42130961139723,8.02956323991706
48028_6751,Bizkaia,Ea,861,447,414,1.07971014492754,14.1695702671312,55.9814169570267,29.849012775842,0.929152148664344,5.45876887340302
48029_14478,Bizkaia,Etxebarri,11831,5873,5958,0.985733467606579,23.8694953934579,60.4006423801876,15.7298622263545,0.49023751162201,3.1949961964331
48030_143,Bizkaia,Etxebarria,685,344,341,1.00879765395894,17.956204379562,56.7883211678832,25.2554744525547,0.583941605839416,10.3649635036496
48031_6107,Bizkaia,Elantxobe,351,174,177,0.983050847457627,13.3903133903134,54.7008547008547,31.9088319088319,0.56980056980057,4.84330484330484
48032_697,Bizkaia,Elorrio,7376,3596,3780,0.951322751322751,18.9533622559653,57.0770065075922,23.9696312364425,0.908351409978308,6.72451193058568
48033_7568,Bizkaia,Ereño,284,159,125,1.272,14.4366197183099,54.2253521126761,31.3380281690141,5.28169014084507,1.05633802816901
48034_25091,Bizkaia,Ermua,15640,7751,7889,0.982507288629738,16.5409207161125,56.9373401534527,26.5217391304348,0.824808184143223,7.84526854219949
48035_8126,Bizkaia,Fruiz,548,264,284,0.929577464788732,23.5401459854015,58.2116788321168,18.2481751824818,0.364963503649635,4.74452554744526
48036_14477,Bizkaia,Galdakao,29409,14455,14954,0.966631001738665,16.6309633105512,58.8459315175627,24.5231051718862,1.12890611717501,4.07018259716413
48037_12655,Bizkaia,Galdames,841,447,394,1.13451776649746,16.884661117717,58.6206896551724,24.4946492271106,0.713436385255648,2.25921521997622
48038_7973,Bizkaia,Gamiz-Fika,1375,689,686,1.00437317784257,16.1454545454545,59.7090909090909,24.1454545454545,0.290909090909091,2.03636363636364
48039_31082,Bizkaia,Garai,320,158,162,0.975308641975309,21.875,60.3125,17.8125,0.9375,0.625
48040_3302,Bizkaia,Gatika,1631,815,816,0.998774509803922,20.1716738197425,57.9399141630901,21.8884120171674,0.980993255671367,2.45248313917842
48041_6593,Bizkaia,Gautegiz Arteaga,910,464,446,1.04035874439462,15.2747252747253,61.3186813186813,23.4065934065934,1.31868131868132,4.50549450549451
48042_151,Bizkaia,Gordexola,1693,876,817,1.07221542227662,17.4246898995865,60.3662138216184,22.209096278795,1.41760189013585,3.13053750738334
48043_4085,Bizkaia,Gorliz,6088,2970,3118,0.95253367543297,18.4789750328515,60.7917214191853,20.7293035479632,1.23193166885677,4.41852825229961
48044_2887,Bizkaia,Getxo,75339,35142,40197,0.874244346593029,16.4961042753421,55.3365454810921,28.1673502435657,1.365826464381,6.26899746479247
48045_147,Bizkaia,Güeñes,6700,3230,3470,0.930835734870317,19.1044776119403,60.2835820895522,20.6119402985075,1.76119402985075,6.02985074626866
48046_7437,Bizkaia,Gernika-Lumo,16887,8082,8805,0.917887563884157,19.2988689524486,56.6115947178303,24.0895363297211,6.36584354829158,6.25925267957601
48047_8771,Bizkaia,Gizaburuaga,198,111,87,1.27586206896552,20.7070707070707,63.6363636363636,15.6565656565657,0.505050505050505,11.6161616161616
48048_5953,Bizkaia,Ibarrangelu,698,365,333,1.0960960960961,11.89111747851,62.4641833810888,25.6446991404011,1.57593123209169,2.00573065902579
48049_6927,Bizkaia,Ispaster,722,376,346,1.08670520231214,21.191135734072,54.4321329639889,24.3767313019391,1.8005540166205,3.18559556786704
48050_505,Bizkaia,Izurtza,244,155,89,1.74157303370787,25,54.5081967213115,20.4918032786885,0.819672131147541,14.7540983606557
48051_10208,Bizkaia,Lanestosa,272,144,128,1.125,9.92647058823529,61.7647058823529,28.3088235294118,0,5.14705882352941
48052_18427,Bizkaia,Larrabetzu,2081,1016,1065,0.953990610328639,21.2397885631908,59.1061989428159,19.6540124939933,1.15329168668909,3.74819798173955
48053_2885,Bizkaia,Laukiz,1244,600,644,0.93167701863354,21.8649517684887,58.5209003215434,19.6141479099678,1.36655948553055,2.491961414791
48054_2888,Bizkaia,Leioa,32391,15764,16627,0.948096469597642,19.0886357321478,59.4763977648112,21.434966503041,0.886048593745176,5.67132845543515
48055_21676,Bizkaia,Lemoa,3583,1813,1770,1.02429378531073,20.8205414457159,61.7638850125593,17.4155735417248,3.767792352777,7.75886128942227
48056_73,Bizkaia,Lemoiz,1340,703,637,1.10361067503925,20.2238805970149,63.5074626865672,16.2686567164179,1.26865671641791,2.61194029850746
48057_8879,Bizkaia,Lekeitio,7117,3505,3612,0.970376522702104,16.4535618940565,56.8919488548546,26.6544892510889,0.927357032457496,6.4352957706899
48058_22447,Bizkaia,Mallabia,1158,585,573,1.02094240837696,17.0984455958549,58.6355785837651,24.26597582038,1.46804835924007,3.713298791019
48059_402,Bizkaia,Mañaria,547,288,259,1.11196911196911,19.7440585009141,57.4040219378428,22.8519195612431,4.02193784277879,2.74223034734918
48060_77,Bizkaia,Markina-Xemein,5029,2535,2494,1.01643945469126,21.0180950487174,56.2338437065023,22.7480612447803,3.06223901372042,10.001988466892
48061_3304,Bizkaia,Maruri- Jatabe,1053,539,514,1.04863813229572,20.1329534662868,59.7340930674264,20.1329534662868,1.13960113960114,2.75403608736942
48062_19088,Bizkaia,Mendata,403,200,203,0.985221674876847,17.3697270471464,58.8089330024814,23.8213399503722,1.48883374689826,2.97766749379653
48063_9032,Bizkaia,Mendexa,443,233,210,1.10952380952381,16.4785553047404,60.0451467268623,23.4762979683973,1.35440180586907,3.83747178329571
48064_6380,Bizkaia,Meñaka,741,397,344,1.15406976744186,18.3535762483131,53.7112010796221,27.9352226720648,0.539811066126856,1.61943319838057
48065_16288,Bizkaia,Ugao-Miraballes,4133,2092,2041,1.0249877511024,17.7353012339705,59.2789741108154,22.9857246552141,1.54851197677232,7.04089039438665
48066_8783,Bizkaia,Morga,426,217,209,1.03827751196172,13.1455399061033,57.981220657277,28.8732394366197,0.938967136150235,2.34741784037559
48067_18625,Bizkaia,Muxika,1515,802,713,1.12482468443198,22.7062706270627,55.2475247524753,22.046204620462,1.12211221122112,5.21452145214521
48068_5552,Bizkaia,Mundaka,1860,901,959,0.939520333680918,15.1075268817204,55.5913978494624,29.3010752688172,0.860215053763441,2.20430107526882
48069_3301,Bizkaia,Mungia,17600,8495,9105,0.933003844041735,20.9943181818182,60.1477272727273,18.8579545454545,1.32954545454545,7.5625
48070_18065,Bizkaia,Aulesti,650,322,328,0.981707317073171,18.3076923076923,54.6153846153846,27.0769230769231,0.307692307692308,3.53846153846154
48071_3076,Bizkaia,Muskiz,7203,3508,3695,0.949391069012179,18.422879355824,59.7251145356102,21.8520061085659,0.708038317367764,3.97056781896432
48072_2232,Bizkaia,Otxandio,1316,668,648,1.03086419753086,21.8085106382979,55.1671732522796,23.0243161094225,0.60790273556231,10.4103343465046
48073_71,Bizkaia,Ondarroa,8260,4136,4124,1.00290979631426,15.4479418886199,57.3365617433414,27.2154963680387,1.31961259079903,7.27602905569007
48074_174,Bizkaia,Urduña/Orduña,4149,2162,1987,1.0880724710619,18.7274041937816,57.2427090865269,24.0298867196915,0.361532899493854,8.05013256206315
48075_59,Bizkaia,Orozko,2724,1362,1362,1,17.5477239353891,62.0411160058737,20.4111600587372,2.42290748898678,5.10279001468429
48076_5955,Bizkaia,Sukarrieta,361,186,175,1.06285714285714,10.803324099723,55.9556786703601,33.2409972299169,1.10803324099723,3.601108033241
48077_3482,Bizkaia,Plentzia,4440,2156,2284,0.943957968476357,17.5,61.8468468468468,20.6531531531532,1.46396396396396,6.68918918918919
48078_12229,Bizkaia,Portugalete,44886,21407,23479,0.911750926359726,14.7908033685336,56.3627857238337,28.8464109076327,1.09833801185225,6.46081183442499
48079_7294,Bizkaia,Errigoiti,509,280,229,1.22270742358079,17.4852652259332,58.1532416502947,24.3614931237721,2.94695481335953,3.33988212180747
48080_12827,Bizkaia,Valle de Trápaga-Trapagaran,11737,5660,6077,0.931380615435248,15.719519468348,58.967368151998,25.3131123796541,0.869046604754196,4.05555082218625
48081_13768,Bizkaia,Lezama,2388,1181,1207,0.978458989229495,19.3048576214405,58.3752093802345,22.319932998325,1.71691792294807,3.97822445561139
48082_3022,Bizkaia,Santurtzi,45800,21955,23845,0.920738100230656,16.3187772925764,58.8973799126637,24.7838427947598,1.09606986899563,6.21397379912664
48083_12170,Bizkaia,Ortuella,8524,4153,4371,0.950125829329673,17.0577193805725,59.1271703425622,23.8151102768653,0.703894885030502,5.56076959174097
48084_12335,Bizkaia,Sestao,27503,13142,14361,0.91511733166214,16.1509653492346,58.9899283714504,24.859106279315,1.07261026069883,11.8605243064393
48085_3651,Bizkaia,Sopela,13886,6913,6973,0.991395382188441,21.8421431657785,60.4133659801239,17.7444908540977,1.28186662825868,3.73037591819098
48086_9438,Bizkaia,Sopuerta,2736,1368,1368,1,18.2383040935673,60.233918128655,21.5277777777778,2.92397660818713,3.28947368421053
48087_9370,Bizkaia,Trucios-Turtzioz,532,270,262,1.03053435114504,12.0300751879699,61.6541353383459,26.3157894736842,1.69172932330827,3.19548872180451
48088_35,Bizkaia,Ubide,179,90,89,1.01123595505618,14.5251396648045,70.9497206703911,14.5251396648045,6.14525139664804,10.6145251396648
48089_3483,Bizkaia,Urduliz,5552,2739,2813,0.97369356558834,20.2989913544669,62.7881844380403,16.9128242074928,1.00864553314121,3.5842939481268
48090_165,Bizkaia,Balmaseda,7650,3667,3983,0.920662816972132,17.9346405228758,57.843137254902,24.2222222222222,2.50980392156863,6.74509803921569
48091_11,Bizkaia,Atxondo,1364,679,685,0.991240875912409,15.9824046920821,58.4310850439883,25.5865102639296,1.24633431085044,5.13196480938416
48092_21672,Bizkaia,Bedia,1116,537,579,0.927461139896373,16.9354838709677,61.9175627240143,21.1469534050179,1.4336917562724,4.92831541218638
48093_308,Bizkaia,Areatza,1257,604,653,0.924961715160796,21.6388225934765,60.0636435958632,18.2975338106603,3.89817024661893,10.1829753381066
48094_23381,Bizkaia,Igorre,4219,2071,2148,0.96415270018622,20.3839772457928,56.4351742118986,23.1808485423086,2.89168049300782,10.3816070158805
48095_2683,Bizkaia,Zaldibar,3015,1514,1501,1.00866089273817,20.1990049751244,57.6451077943615,22.1558872305141,3.01824212271973,7.82752902155887
48096_14541,Bizkaia,Zalla,8218,4011,4207,0.953410981697171,18.0457532246289,58.4448770990509,23.5093696763203,3.00559746897055,5.69481625699684
48097_15112,Bizkaia,Zaratamo,1590,783,807,0.970260223048327,17.0440251572327,61.2578616352201,21.6981132075472,1.06918238993711,3.58490566037736
48901_12526,Bizkaia,Derio,7373,3600,3773,0.954147892923403,21.226095212261,60.0705276007053,18.7033771870338,0.50183100501831,5.75071205750712
48902_2889,Bizkaia,Erandio,24085,11540,12545,0.919888401753687,17.3925679883745,59.4519410421424,23.1554909694831,1.29541208220884,7.46937928171061
48903_5050,Bizkaia,Loiu,2219,1108,1111,0.997299729972997,19.7836863452005,56.6922036953583,23.5241099594412,1.84767913474538,5.76836412798558
48904_12989,Bizkaia,Sondika,4538,2173,2365,0.918816067653277,18.2238871749669,60.0925517849273,21.6835610401058,1.60863816659321,4.91405905685324
48905_12611,Bizkaia,Zamudio,3236,1623,1613,1.00619962802232,18.1705809641533,57.4474660074166,24.3819530284302,1.60692212608158,8.09641532756489
48906_86,Bizkaia,Forua,939,455,484,0.940082644628099,16.6134185303514,56.4430244941427,26.9435569755059,2.87539936102236,2.44941427050053
48907_7553,Bizkaia,Kortezubi,455,220,235,0.936170212765957,20.4395604395604,57.8021978021978,21.7582417582418,1.0989010989011,3.07692307692308
48908_7295,Bizkaia,Murueta,336,169,167,1.01197604790419,17.8571428571429,63.0952380952381,19.047619047619,1.48809523809524,2.67857142857143
48909_8772,Bizkaia,Nabarniz,260,123,137,0.897810218978102,18.8461538461538,56.5384615384615,24.6153846153846,2.30769230769231,2.69230769230769
48910_78,Bizkaia,Iurreta,3726,1812,1914,0.946708463949843,18.4111647879764,57.0585077831455,24.5303274288782,1.52979066022544,9.39345142243693
48911_36754,Bizkaia,Ajangiz,467,242,225,1.07555555555556,17.3447537473233,57.3875802997859,25.2676659528908,0.856531049250535,1.49892933618844
48912_62,Bizkaia,Alonsotegi,2989,1479,1510,0.979470198675497,17.1629307460689,59.6186015389762,23.2184677149548,1.50552024088324,6.69120107059217
48913_3021,Bizkaia,Zierbena,1495,793,702,1.12962962962963,15.3177257525084,62.809364548495,21.8729096989967,0.20066889632107,2.47491638795987
48914_66,Bizkaia,Arratzu,412,193,219,0.881278538812785,18.9320388349515,53.6407766990291,27.4271844660194,0.485436893203884,4.61165048543689
48915_133480,Bizkaia,Ziortza-Bolibar,424,231,193,1.19689119170984,18.3962264150943,56.6037735849057,25,0.943396226415094,3.5377358490566
20001_81189,Gipuzkoa,Abaltzisketa,316,182,134,1.35820895522388,17.4050632911392,65.1898734177215,17.4050632911392,0.632911392405063,6.9620253164557
20002_58091,Gipuzkoa,Aduna,497,264,233,1.13304721030043,25.5533199195171,58.7525150905433,15.6941649899396,1.00603621730382,3.420523138833
20003_50006,Gipuzkoa,Aizarnazabal,757,380,377,1.0079575596817,24.5706737120211,56.8031704095112,18.6261558784676,1.32100396301189,5.41611624834874
20004_75902,Gipuzkoa,Albiztur,312,158,154,1.02597402597403,25.3205128205128,54.8076923076923,19.8717948717949,1.6025641025641,1.28205128205128
20005_78915,Gipuzkoa,Alegia,1850,975,875,1.11428571428571,20.6486486486486,59.2432432432432,20.1081081081081,2.81081081081081,11.7837837837838
20006_60622,Gipuzkoa,Alkiza,353,175,178,0.98314606741573,30.3116147308782,53.2577903682719,16.4305949008499,0.28328611898017,6.23229461756374
20007_77932,Gipuzkoa,Altzo,398,208,190,1.09473684210526,23.3668341708543,57.7889447236181,18.8442211055276,0.50251256281407,2.26130653266332
20008_79676,Gipuzkoa,Amezketa,925,476,449,1.06013363028953,20.3243243243243,56.972972972973,22.7027027027027,0.648648648648649,4
20009_58969,Gipuzkoa,Andoain,14755,7363,7392,0.99607683982684,18.9156218231108,56.9569637411047,24.1274144357845,1.11148763131142,6.43849542527957
20010_60764,Gipuzkoa,Anoeta,2128,1095,1033,1.06001936108422,21.5695488721805,58.9755639097744,19.4548872180451,1.64473684210526,7.23684210526316
20011_69779,Gipuzkoa,Antzuola,2138,1061,1077,0.985143918291551,20.7670720299345,57.3900841908326,21.8428437792329,1.49672591206735,3.83536014967259
20012_79887,Gipuzkoa,Arama,193,91,102,0.892156862745098,20.2072538860104,60.6217616580311,19.1709844559585,8.29015544041451,3.10880829015544
20013_73177,Gipuzkoa,Aretxabaleta,7203,3582,3621,0.989229494614747,20.3109815354713,57.253921976954,22.4350964875746,1.02734971539636,5.66430653894211
20014_58654,Gipuzkoa,Asteasu,1530,793,737,1.07598371777476,21.8300653594771,60.3267973856209,17.843137254902,1.24183006535948,5.09803921568627
20015_81125,Gipuzkoa,Ataun,1702,883,819,1.07814407814408,23.2079905992949,54.1128084606345,22.6792009400705,2.29142185663925,5.05287896592244
20016_57945,Gipuzkoa,Aia,2108,1100,1008,1.09126984126984,23.6242884250474,58.6337760910816,17.741935483871,1.09108159392789,5.1707779886148
20017_51619,Gipuzkoa,Azkoitia,11947,6014,5933,1.01365245238497,21.5116765715242,58.215451577802,20.2728718506738,1.13836109483552,9.54214447141542
20018_53634,Gipuzkoa,Azpeitia,15315,7727,7588,1.01831839746969,20.7966046359778,57.349004244205,21.8543911198172,1.09696376101861,7.32615083251714
20019_70007,Gipuzkoa,Beasain,13844,6920,6924,0.999422299248989,20.8465761340653,57.2811326206299,21.8722912453048,8.14071077723201,6.63825483964172
20020_69070,Gipuzkoa,Beizama,101,69,32,2.15625,18.8118811881188,59.4059405940594,21.7821782178218,0.99009900990099,0.99009900990099
20021_77381,Gipuzkoa,Belauntza,308,160,148,1.08108108108108,22.7272727272727,52.5974025974026,24.6753246753247,1.94805194805195,6.16883116883117
20022_77577,Gipuzkoa,Berastegi,1067,544,523,1.04015296367113,19.5876288659794,58.3880037488285,22.0243673851921,0.56232427366448,1.68697282099344
20023_77379,Gipuzkoa,Berrobi,584,305,279,1.09318996415771,21.4041095890411,59.7602739726027,18.8356164383562,0.856164383561644,7.02054794520548
20024_70008,Gipuzkoa,Bidania-Goiatz,544,278,266,1.04511278195489,21.875,60.2941176470588,17.8308823529412,0.367647058823529,3.125
20025_92437,Gipuzkoa,Zegama,1538,800,738,1.0840108401084,23.407022106632,55.6566970091027,20.9362808842653,3.77113133940182,4.61638491547464
20026_75066,Gipuzkoa,Zerain,283,132,151,0.874172185430464,18.7279151943463,52.6501766784452,28.6219081272085,0.706713780918728,3.53356890459364
20027_50005,Gipuzkoa,Zestoa,3794,1970,1824,1.08004385964912,22.008434370058,58.645229309436,19.3463363205061,1.23879810226674,7.43278861360042
20028_59900,Gipuzkoa,Zizurkil,2882,1446,1436,1.00696378830084,20.9576682859126,57.0784177654407,21.9639139486468,1.73490631505899,6.76613462873005
20029_50004,Gipuzkoa,Deba,5369,2645,2724,0.970998531571219,16.8560253306016,57.1056062581486,26.0383684112498,0.968523002421308,5.47588005215124
20030_51213,Gipuzkoa,Eibar,26883,13020,13863,0.939190651374161,18.4466019417476,55.6039132537291,25.9494848045233,0.613770784510657,10.2406725439869
20031_60308,Gipuzkoa,Elduain,231,113,118,0.957627118644068,25.5411255411255,59.7402597402597,14.7186147186147,0.432900432900433,1.73160173160173
20032_51388,Gipuzkoa,Elgoibar,11446,5639,5807,0.971069399001205,19.9807793115499,56.2991438056963,23.7200768827538,1.12703127730211,9.61034422505679
20033_68463,Gipuzkoa,Elgeta,1104,563,541,1.04066543438078,22.463768115942,57.4275362318841,20.1086956521739,0.72463768115942,5.52536231884058
20034_73078,Gipuzkoa,Eskoriatza,4206,2128,2078,1.02406159769009,18.2358535425582,59.2724679029957,22.491678554446,2.47265810746553,6.94246314788397
20035_69831,Gipuzkoa,Ezkio- Itsaso,621,326,295,1.10508474576271,18.0354267310789,57.3268921095008,24.6376811594203,4.50885668276973,4.34782608695652
20036_47851,Gipuzkoa,Hondarribia,17017,8406,8611,0.976193241203112,18.0877945583828,57.2780161015455,24.6341893400717,1.68654874537227,4.85396955985191
20037_80160,Gipuzkoa,Gaintza,125,72,53,1.35849056603774,16,63.2,20.8,1.6,1.6
20038_73809,Gipuzkoa,Gabiria,531,304,227,1.33920704845815,18.0790960451977,60.075329566855,21.8455743879473,3.2015065913371,3.57815442561205
20039_50093,Gipuzkoa,Getaria,2907,1466,1441,1.01734906315059,19.5390436876505,61.5755073959408,18.8854489164087,3.71517027863777,6.70794633642931
20040_60390,Gipuzkoa,Hernani,20427,10003,10424,0.959612432847275,18.4559651441719,60.0528711998825,21.4911636559456,1.478435404122,7.41665442796299
20041_131952,Gipuzkoa,Hernialde,317,166,151,1.09933774834437,16.7192429022082,58.3596214511041,24.9211356466877,2.52365930599369,4.41640378548896
20042_77863,Gipuzkoa,Ibarra,4063,1992,2071,0.961854176726219,19.4929854787103,54.0241201082944,26.4828944129953,1.6490278119616,7.48215604233325
20043_74104,Gipuzkoa,Idiazabal,2323,1168,1155,1.01125541125541,21.9974171330177,53.852776582006,24.1498062849763,2.84115368058545,4.90744726646578
20044_78799,Gipuzkoa,Ikaztegieta,477,244,233,1.04721030042918,21.8029350104822,55.5555555555556,22.6415094339623,4.40251572327044,10.272536687631
20045_62410,Gipuzkoa,Irun,60531,29503,31028,0.950850844398608,18.0006938593448,58.3122697460805,23.6870363945747,3.44121194098891,8.58072723067519
20046_76203,Gipuzkoa,Irura,1836,949,887,1.06989853438557,26.797385620915,62.2004357298475,11.0021786492375,2.66884531590414,6.97167755991285
20047_79295,Gipuzkoa,Itsasondo,686,347,339,1.023598820059,23.469387755102,58.3090379008746,18.2215743440233,3.35276967930029,11.2244897959184
20048_59901,Gipuzkoa,Larraul,259,145,114,1.2719298245614,27.4131274131274,59.8455598455598,12.7413127413127,3.47490347490348,3.86100386100386
20049_90902,Gipuzkoa,Lazkao,5827,2894,2933,0.986703034435731,22.1211601166981,58.932555345804,18.9462845374979,7.51673245237687,5.18276986442423
20050_79076,Gipuzkoa,Leaburu,380,197,183,1.07650273224044,20.7894736842105,57.6315789473684,21.5789473684211,3.42105263157895,10.2631578947368
20051_71377,Gipuzkoa,Legazpi,8340,4187,4153,1.00818685287744,17.841726618705,55.1079136690648,27.0503597122302,1.40287769784173,6.28297362110312
20052_79269,Gipuzkoa,Legorreta,1498,767,731,1.04924760601915,20.694259012016,56.675567423231,22.630173564753,4.40587449933244,8.54472630173565
20053_48514,Gipuzkoa,Lezo,6033,2983,3050,0.978032786885246,17.9512680258578,61.0144206862258,21.0343112879165,1.01110558594397,5.08867893253771
20054_79829,Gipuzkoa,Lizartza,658,354,304,1.16447368421053,18.5410334346505,59.5744680851064,21.8844984802432,5.31914893617021,6.23100303951368
20055_70111,Gipuzkoa,Arrasate/Mondragón,21749,10652,11097,0.959899071821213,17.3295323922939,56.3428203595568,26.3276472481493,0.625316106487655,9.01650650604626
20056_48915,Gipuzkoa,Mutriku,5379,2717,2662,1.02066115702479,19.2043130693437,58.2264361405466,22.5692507901097,1.58021937163041,6.20933258970069
20057_73929,Gipuzkoa,Mutiloa,242,124,118,1.05084745762712,21.0743801652893,58.2644628099173,20.6611570247934,0,2.47933884297521
20058_74348,Gipuzkoa,Olaberria,940,490,450,1.08888888888889,16.1702127659574,58.936170212766,24.8936170212766,5.63829787234043,7.34042553191489
20059_72221,Gipuzkoa,Oñati,11511,5653,5858,0.965005121201775,20.6150638519677,55.1385631135436,24.2463730344888,0.877421596733559,6.28094865780558
20060_79121,Gipuzkoa,Orexa,103,61,42,1.45238095238095,24.2718446601942,57.2815533980583,18.4466019417476,2.9126213592233,1.94174757281553
20061_55880,Gipuzkoa,Orio,6152,3111,3041,1.02301874383427,21.5864759427828,60.4031209362809,18.0104031209363,1.31664499349805,7.67230169050715
20062_73933,Gipuzkoa,Ormaiztegi,1245,626,619,1.01130856219709,22.1686746987952,54.6987951807229,23.1325301204819,2.65060240963855,5.94377510040161
20063_62025,Gipuzkoa,Oiartzun,10350,5106,5244,0.973684210526316,19.1980676328502,59.0821256038647,21.719806763285,1.34299516908213,3.15942028985507
20064_53997,Gipuzkoa,Pasaia,16723,8055,8668,0.929280110752192,17.0483764874723,60.9998206063505,21.9518029061771,2.95401542785385,10.29719547928
20065_67914,Gipuzkoa,Soraluze-Placencia de las Armas,3705,1897,1808,1.04922566371681,18.7044534412955,56.7071524966262,24.5883940620783,0.944669365721997,12.6585695006748
20066_59573,Gipuzkoa,Errezil,590,328,262,1.25190839694656,20.5084745762712,61.1864406779661,18.3050847457627,3.22033898305085,2.54237288135593
20067_55443,Gipuzkoa,Errenteria,39714,19299,20415,0.945334313005143,17.3565996877675,58.538550637055,24.1048496751775,1.12051165835725,8.18351211159793
20068_86795,Gipuzkoa,Leintz-Gatzaga,215,128,87,1.47126436781609,13.4883720930233,59.0697674418605,27.4418604651163,1.3953488372093,2.7906976744186
20069_56020,Gipuzkoa,Donostia / San Sebastián,182716,85980,96736,0.888810783989414,16.4238490334727,57.6046980012697,25.9714529652576,1.78090588673132,7.99327918737275
20070_90803,Gipuzkoa,Segura,1456,739,717,1.03068340306834,23.6263736263736,56.1813186813187,20.1923076923077,2.67857142857143,5.28846153846154
20071_77777,Gipuzkoa,Tolosa,19924,9686,10238,0.946083219378785,19.6245733788396,57.5486850030114,22.826741618149,1.18450110419594,9.05942581810881
20072_58392,Gipuzkoa,Urnieta,6182,3090,3092,0.999353169469599,18.4406340989971,62.601099967648,18.9582659333549,2.13523131672598,4.70721449369136
20073_54505,Gipuzkoa,Usurbil,6387,3207,3180,1.00849056603774,20.9488022545796,59.2296852982621,19.8215124471583,1.01769218725536,5.55816502270236
20074_70311,Gipuzkoa,Bergara,14779,7341,7438,0.986958859908578,17.7346234521957,57.6020028418702,24.6633737059341,1.17734623452196,7.80161039312538
20075_60090,Gipuzkoa,Villabona,5734,2784,2950,0.943728813559322,19.3233344959888,58.0572026508545,22.6194628531566,2.07534007673526,9.59190791768399
20076_71701,Gipuzkoa,Ordizia,10232,5054,5178,0.976052529934338,21.8530101641908,58.1606724003127,19.9863174354965,10.4964816262705,10.2912431587177
20077_70507,Gipuzkoa,Urretxu,6826,3434,3392,1.0123820754717,18.7664811016701,58.2918253735716,22.9416935247583,0.908291825373572,6.48989159097568
20078_80161,Gipuzkoa,Zaldibia,1747,890,857,1.03850641773629,24.0412135088724,54.6651402404121,21.2936462507155,8.29994275901545,9.44476244991414
20079_55593,Gipuzkoa,Zarautz,23228,11227,12001,0.935505374552121,18.68004132943,58.8858274496298,22.4341312209402,1.13655932495264,5.18339934561736
20080_70607,Gipuzkoa,Zumarraga,9594,4728,4866,0.971639950678175,18.1259120283511,56.6499895768188,25.2240983948301,1.31332082551595,7.82780904732124
20081_50092,Gipuzkoa,Zumaia,10054,4976,5078,0.979913351713273,20.9966182613885,57.8078376765466,21.1955440620649,1.25323254426099,4.30674358464293
20901_50108,Gipuzkoa,Mendaro,2021,1032,989,1.04347826086957,23.7506185056903,58.5848589807026,17.6645225136071,1.13805047006432,9.00544285007422
20902_58094,Gipuzkoa,Lasarte-Oria,19604,9548,10056,0.949482895783612,17.7871862885125,57.7535196898592,24.4592940216282,1.57110793715568,8.53907365843705
20903_55167,Gipuzkoa,Astigarraga,7598,3846,3752,1.02505330490405,24.5064490655436,62.4638062648065,13.0297446696499,1.52671755725191,3.81679389312977
20904_79452,Gipuzkoa,Baliarrain,159,85,74,1.14864864864865,33.3333333333333,57.8616352201258,8.80503144654088,3.14465408805031,4.40251572327044
20905_79674,Gipuzkoa,Orendain,234,111,123,0.902439024390244,26.0683760683761,60.2564102564103,13.6752136752137,2.13675213675214,2.56410256410256
20906_79553,Gipuzkoa,Altzaga,162,79,83,0.951807228915663,26.5432098765432,53.0864197530864,20.3703703703704,2.46913580246914,1.23456790123457
20907_129107,Gipuzkoa,Gaztelu,177,94,83,1.13253012048193,24.8587570621469,55.3672316384181,19.774011299435,0,2.82485875706215